,idx,y_prob,y_true
0,/home/minasian/input/train/0020af02-bbba-11e8-b2ba-ac1f6b6435d0,"[[0.044097900390625, 0.0226593017578125, 0.9794921875, 0.059722900390625, 0.0037670135498046875, 0.1318359375, 0.021697998046875, 0.00899505615234375, 0.0140380859375, 0.0030040740966796875, 0.0021915435791015625, 0.0008678436279296875, 0.0031070709228515625, 0.004894256591796875, 0.01438140869140625, 0.007335662841796875, 0.0036144256591796875, 0.006206512451171875, 0.00036454200744628906, 0.0073699951171875, 0.00298309326171875, 0.07537841796875, 0.0011739730834960938, 0.0102691650390625, 0.024383544921875, 0.94921875, 0.0017871856689453125, 0.00736236572265625]]","[0.0, 0.0, 1.0, 0.0, 0.0, 0.0, 0.0, 0.0, 0.0, 0.0, 0.0, 0.0, 0.0, 0.0, 0.0, 0.0, 0.0, 0.0, 0.0, 0.0, 0.0, 0.0, 0.0, 0.0, 0.0, 1.0, 0.0, 0.0]"
1,/home/minasian/input/train/00301238-bbb2-11e8-b2ba-ac1f6b6435d0,"[[0.002323150634765625, 0.0016298294067382812, 0.002048492431640625, 0.005359649658203125, 0.017120361328125, 0.01227569580078125, 0.005130767822265625, 0.02056884765625, 0.0006327629089355469, 0.0034332275390625, 0.0015707015991210938, 0.00408935546875, 0.002437591552734375, 0.0127105712890625, 0.00769805908203125, 0.0013675689697265625, 0.0004208087921142578, 0.001041412353515625, 0.0017757415771484375, 0.0031871795654296875, 0.1494140625, 0.285400390625, 0.259765625, 0.005611419677734375, 0.0008893013000488281, 0.0032596588134765625, 0.00937652587890625, 0.002490997314453125]]","[0.0, 0.0, 0.0, 0.0, 0.0, 0.0, 0.0, 0.0, 0.0, 0.0, 0.0, 0.0, 0.0, 0.0, 0.0, 0.0, 0.0, 0.0, 0.0, 0.0, 0.0, 1.0, 0.0, 0.0, 0.0, 0.0, 0.0, 0.0]"
2,/home/minasian/input/train/0032a07e-bba9-11e8-b2ba-ac1f6b6435d0,"[[0.8876953125, 0.0010080337524414062, 0.010528564453125, 0.0040283203125, 0.005443572998046875, 0.117431640625, 0.0159912109375, 0.06671142578125, 0.0035858154296875, 0.003993988037109375, 0.003200531005859375, 0.1571044921875, 0.0038280487060546875, 0.023101806640625, 0.00896453857421875, 0.004993438720703125, 0.00937652587890625, 0.001407623291015625, 0.0055694580078125, 0.032867431640625, 0.036376953125, 0.0056304931640625, 0.0008425712585449219, 0.016143798828125, 0.5673828125, 0.042755126953125, 0.0017910003662109375, 0.001888275146484375]]","[1.0, 0.0, 0.0, 0.0, 0.0, 0.0, 0.0, 0.0, 0.0, 0.0, 0.0, 0.0, 0.0, 0.0, 0.0, 0.0, 0.0, 0.0, 0.0, 0.0, 0.0, 0.0, 0.0, 0.0, 1.0, 0.0, 0.0, 0.0]"
3,/home/minasian/input/train/00344514-bbc2-11e8-b2bb-ac1f6b6435d0,"[[0.0728759765625, 0.0012302398681640625, 0.0227203369140625, 0.0273284912109375, 0.00534820556640625, 0.0286407470703125, 0.0285186767578125, 0.03790283203125, 0.004863739013671875, 0.003269195556640625, 0.002330780029296875, 0.0018510818481445312, 0.0012378692626953125, 0.00750732421875, 0.0014104843139648438, 0.0109100341796875, 0.002056121826171875, 0.0033359527587890625, 0.00824737548828125, 0.0093994140625, 0.0154571533203125, 0.00861358642578125, 0.049407958984375, 0.9423828125, 0.007320404052734375, 0.0643310546875, 0.00322723388671875, 0.012115478515625]]","[0.0, 0.0, 0.0, 0.0, 0.0, 0.0, 0.0, 0.0, 0.0, 0.0, 0.0, 0.0, 0.0, 0.0, 0.0, 0.0, 0.0, 0.0, 0.0, 0.0, 0.0, 0.0, 0.0, 1.0, 0.0, 0.0, 0.0, 0.0]"
4,/home/minasian/input/train/00383b44-bbbb-11e8-b2ba-ac1f6b6435d0,"[[0.0340576171875, 0.0017347335815429688, 0.0052337646484375, 0.0089263916015625, 0.01222991943359375, 0.0196533203125, 0.1444091796875, 0.0149993896484375, 0.00751495361328125, 0.00689697265625, 0.0057830810546875, 0.008941650390625, 0.015625, 0.0008058547973632812, 0.08837890625, 0.00751495361328125, 0.063720703125, 0.053375244140625, 0.04278564453125, 0.060699462890625, 0.01383209228515625, 0.325927734375, 0.0309906005859375, 0.034332275390625, 0.0150146484375, 0.32958984375, 0.033905029296875, 0.01171112060546875]]","[0.0, 0.0, 0.0, 0.0, 0.0, 0.0, 0.0, 0.0, 0.0, 0.0, 0.0, 0.0, 0.0, 0.0, 0.0, 0.0, 0.0, 0.0, 0.0, 0.0, 0.0, 0.0, 0.0, 0.0, 0.0, 1.0, 0.0, 0.0]"
5,/home/minasian/input/train/0047c984-bba6-11e8-b2ba-ac1f6b6435d0,"[[0.00867462158203125, 0.0029811859130859375, 0.0019989013671875, 0.0012216567993164062, 0.039306640625, 0.002529144287109375, 0.0005888938903808594, 0.0023403167724609375, 0.002246856689453125, 0.003856658935546875, 0.0020198822021484375, 0.99951171875, 0.001544952392578125, 0.001247406005859375, 0.0018682479858398438, 0.013092041015625, 0.004184722900390625, 0.0027942657470703125, 0.007965087890625, 0.001220703125, 0.003467559814453125, 0.0012969970703125, 0.022308349609375, 0.0038909912109375, 0.0017442703247070312, 0.0011186599731445312, 0.00022745132446289062, 0.01334381103515625]]","[0.0, 0.0, 0.0, 0.0, 0.0, 0.0, 0.0, 0.0, 0.0, 0.0, 0.0, 1.0, 0.0, 0.0, 0.0, 0.0, 0.0, 0.0, 0.0, 0.0, 0.0, 0.0, 0.0, 0.0, 0.0, 0.0, 0.0, 0.0]"
6,/home/minasian/input/train/00508c34-bbb7-11e8-b2ba-ac1f6b6435d0,"[[0.865234375, 0.023590087890625, 0.196533203125, 0.292236328125, 0.035675048828125, 0.3798828125, 0.011016845703125, 0.13623046875, 0.0184478759765625, 0.017364501953125, 0.0192413330078125, 0.00732421875, 0.034423828125, 0.01323699951171875, 0.0129547119140625, 0.0181121826171875, 0.0110931396484375, 0.010467529296875, 0.040191650390625, 0.1285400390625, 0.055145263671875, 0.006580352783203125, 0.00823974609375, 0.031707763671875, 0.01486968994140625, 0.0164337158203125, 0.110107421875, 0.048614501953125]]","[1.0, 0.0, 0.0, 1.0, 0.0, 0.0, 0.0, 0.0, 0.0, 0.0, 0.0, 0.0, 0.0, 0.0, 0.0, 0.0, 0.0, 0.0, 0.0, 0.0, 0.0, 0.0, 0.0, 0.0, 0.0, 0.0, 0.0, 0.0]"
7,/home/minasian/input/train/005a103a-bbc4-11e8-b2bc-ac1f6b6435d0,"[[0.00013124942779541016, 0.0020847320556640625, 0.00272369384765625, 0.000362396240234375, 0.007381439208984375, 0.00029206275939941406, 0.0147857666015625, 0.03900146484375, 0.0017824172973632812, 0.01084136962890625, 0.007328033447265625, 0.0226898193359375, 0.004199981689453125, 0.99072265625, 0.0015974044799804688, 0.0034732818603515625, 0.00017511844635009766, 0.0021266937255859375, 0.0003027915954589844, 0.0009226799011230469, 0.001312255859375, 0.87109375, 0.006671905517578125, 0.00281524658203125, 0.0062255859375, 0.96240234375, 0.00673675537109375, 0.0025463104248046875]]","[0.0, 0.0, 0.0, 0.0, 0.0, 0.0, 0.0, 0.0, 0.0, 0.0, 0.0, 0.0, 0.0, 1.0, 0.0, 0.0, 0.0, 0.0, 0.0, 0.0, 0.0, 1.0, 0.0, 0.0, 0.0, 1.0, 0.0, 0.0]"
8,/home/minasian/input/train/005a78ec-bbae-11e8-b2ba-ac1f6b6435d0,"[[0.060089111328125, 0.00385284423828125, 0.278076171875, 0.032806396484375, 0.13671875, 0.154541015625, 0.0260162353515625, 0.8828125, 0.010467529296875, 0.01324462890625, 0.0110626220703125, 0.0046234130859375, 0.003322601318359375, 0.010101318359375, 0.018310546875, 0.0242767333984375, 0.056854248046875, 0.01006317138671875, 0.051025390625, 0.1082763671875, 0.01192474365234375, 0.0294036865234375, 0.0032176971435546875, 0.114990234375, 0.01837158203125, 0.049591064453125, 0.059295654296875, 0.03155517578125]]","[0.0, 0.0, 0.0, 0.0, 0.0, 0.0, 0.0, 1.0, 0.0, 0.0, 0.0, 0.0, 0.0, 0.0, 0.0, 0.0, 0.0, 0.0, 0.0, 0.0, 0.0, 0.0, 0.0, 0.0, 0.0, 0.0, 0.0, 0.0]"
9,/home/minasian/input/train/0065e36c-bba4-11e8-b2b9-ac1f6b6435d0,"[[0.7724609375, 0.004131317138671875, 0.9111328125, 0.050933837890625, 0.007579803466796875, 0.0941162109375, 0.0196685791015625, 0.11663818359375, 0.0064849853515625, 0.006000518798828125, 0.00933074951171875, 0.00789642333984375, 0.01555633544921875, 0.0029888153076171875, 0.038726806640625, 0.004688262939453125, 0.0014066696166992188, 0.0011625289916992188, 0.0009469985961914062, 0.004058837890625, 0.01027679443359375, 0.00424957275390625, 0.2296142578125, 0.0885009765625, 0.018280029296875, 0.119140625, 0.0251617431640625, 0.004062652587890625]]","[1.0, 0.0, 1.0, 0.0, 0.0, 0.0, 0.0, 0.0, 0.0, 0.0, 0.0, 0.0, 0.0, 0.0, 0.0, 0.0, 0.0, 0.0, 0.0, 0.0, 0.0, 0.0, 0.0, 0.0, 0.0, 0.0, 0.0, 0.0]"
10,/home/minasian/input/train/008761b4-bbad-11e8-b2ba-ac1f6b6435d0,"[[0.01515960693359375, 0.0025882720947265625, 0.01294708251953125, 0.005092620849609375, 0.0033626556396484375, 0.06097412109375, 0.0019989013671875, 0.0190887451171875, 0.0181121826171875, 0.00693511962890625, 0.00716400146484375, 0.004955291748046875, 0.0026950836181640625, 0.0015382766723632812, 0.88623046875, 0.00457763671875, 0.7373046875, 0.63818359375, 0.012786865234375, 0.2071533203125, 0.0073394775390625, 0.042449951171875, 0.01131439208984375, 0.012969970703125, 0.01198577880859375, 0.1304931640625, 0.005886077880859375, 0.01323699951171875]]","[0.0, 0.0, 0.0, 0.0, 0.0, 0.0, 0.0, 0.0, 0.0, 0.0, 0.0, 0.0, 0.0, 0.0, 1.0, 0.0, 1.0, 1.0, 0.0, 0.0, 0.0, 0.0, 0.0, 0.0, 0.0, 0.0, 0.0, 0.0]"
11,/home/minasian/input/train/0088a1b6-bbb5-11e8-b2ba-ac1f6b6435d0,"[[0.0199737548828125, 0.00740814208984375, 0.10162353515625, 0.005512237548828125, 0.0244903564453125, 0.00811004638671875, 0.00986480712890625, 0.032379150390625, 0.0097198486328125, 0.0202789306640625, 0.011627197265625, 0.9873046875, 0.03790283203125, 0.0088653564453125, 0.00765228271484375, 0.040679931640625, 0.0131683349609375, 0.01371002197265625, 0.038055419921875, 0.015838623046875, 0.00693511962890625, 0.0228271484375, 0.011810302734375, 0.060272216796875, 0.0100555419921875, 0.035369873046875, 0.01009368896484375, 0.314697265625]]","[0.0, 0.0, 0.0, 0.0, 0.0, 0.0, 0.0, 0.0, 0.0, 0.0, 0.0, 1.0, 0.0, 0.0, 0.0, 0.0, 0.0, 0.0, 0.0, 0.0, 0.0, 0.0, 0.0, 0.0, 0.0, 0.0, 0.0, 0.0]"
12,/home/minasian/input/train/00a71d92-bbb2-11e8-b2ba-ac1f6b6435d0,"[[0.409423828125, 0.094482421875, 0.55419921875, 0.00569915771484375, 0.003284454345703125, 0.424072265625, 0.00202178955078125, 0.1993408203125, 0.005382537841796875, 0.00286102294921875, 0.0033435821533203125, 0.0254058837890625, 0.00794219970703125, 0.0018033981323242188, 0.0035724639892578125, 0.006580352783203125, 0.0039005279541015625, 0.0040283203125, 0.0616455078125, 0.00339508056640625, 0.0024261474609375, 0.630859375, 0.0022335052490234375, 0.055267333984375, 0.001338958740234375, 0.479248046875, 0.006481170654296875, 0.0025730133056640625]]","[0.0, 0.0, 0.0, 0.0, 0.0, 0.0, 0.0, 0.0, 0.0, 0.0, 0.0, 0.0, 0.0, 0.0, 0.0, 0.0, 0.0, 0.0, 0.0, 0.0, 0.0, 1.0, 0.0, 0.0, 0.0, 0.0, 0.0, 0.0]"
13,/home/minasian/input/train/00b8087a-bbc4-11e8-b2bc-ac1f6b6435d0,"[[0.56787109375, 0.02850341796875, 0.1337890625, 0.048675537109375, 0.08343505859375, 0.1573486328125, 0.029205322265625, 0.03985595703125, 0.0240020751953125, 0.00991058349609375, 0.005767822265625, 0.1318359375, 0.0675048828125, 0.015594482421875, 0.03118896484375, 0.0268707275390625, 0.036834716796875, 0.008148193359375, 0.005443572998046875, 0.0179595947265625, 0.041229248046875, 0.345703125, 0.04638671875, 0.302001953125, 0.00824737548828125, 0.41357421875, 0.0224761962890625, 0.01380157470703125]]","[1.0, 0.0, 0.0, 0.0, 0.0, 0.0, 0.0, 0.0, 0.0, 0.0, 0.0, 0.0, 0.0, 0.0, 0.0, 0.0, 0.0, 0.0, 0.0, 0.0, 0.0, 1.0, 0.0, 0.0, 0.0, 0.0, 0.0, 0.0]"
14,/home/minasian/input/train/00b9bdcc-bbca-11e8-b2bc-ac1f6b6435d0,"[[0.00988006591796875, 0.0011491775512695312, 0.2237548828125, 0.0020427703857421875, 0.004180908203125, 0.033599853515625, 0.857421875, 0.0687255859375, 0.0028705596923828125, 0.0029315948486328125, 0.0034313201904296875, 0.0127105712890625, 0.0062408447265625, 0.00351715087890625, 0.0117340087890625, 0.00766754150390625, 0.0025691986083984375, 0.0035839080810546875, 0.0108489990234375, 0.038970947265625, 0.004119873046875, 0.0887451171875, 0.0017337799072265625, 0.1185302734375, 0.0047760009765625, 0.176025390625, 0.009124755859375, 0.002979278564453125]]","[0.0, 0.0, 0.0, 0.0, 0.0, 0.0, 1.0, 0.0, 0.0, 0.0, 0.0, 0.0, 0.0, 0.0, 0.0, 0.0, 0.0, 0.0, 0.0, 0.0, 0.0, 0.0, 0.0, 0.0, 0.0, 0.0, 0.0, 0.0]"
15,/home/minasian/input/train/00c96be4-bbb8-11e8-b2ba-ac1f6b6435d0,"[[0.425048828125, 0.0182952880859375, 0.2259521484375, 0.0809326171875, 0.0465087890625, 0.68994140625, 0.03143310546875, 0.07940673828125, 0.01128387451171875, 0.016693115234375, 0.0113677978515625, 0.0110015869140625, 0.072509765625, 0.104248046875, 0.054412841796875, 0.0300445556640625, 0.2381591796875, 0.0120086669921875, 0.134033203125, 0.04833984375, 0.01690673828125, 0.038848876953125, 0.038421630859375, 0.166748046875, 0.06329345703125, 0.453369140625, 0.031829833984375, 0.009979248046875]]","[0.0, 0.0, 0.0, 0.0, 0.0, 1.0, 0.0, 0.0, 0.0, 0.0, 0.0, 0.0, 0.0, 0.0, 0.0, 0.0, 0.0, 0.0, 0.0, 0.0, 0.0, 0.0, 0.0, 0.0, 0.0, 0.0, 0.0, 0.0]"
16,/home/minasian/input/train/00e77c9c-bbc2-11e8-b2bb-ac1f6b6435d0,"[[0.23095703125, 0.0006880760192871094, 0.0094451904296875, 0.01018524169921875, 0.9423828125, 0.0177764892578125, 0.005046844482421875, 0.015625, 0.004207611083984375, 0.004638671875, 0.006923675537109375, 0.0302581787109375, 0.001132965087890625, 0.00493621826171875, 0.0028228759765625, 0.0049591064453125, 0.007061004638671875, 0.0012598037719726562, 0.0086669921875, 0.24658203125, 0.0013475418090820312, 0.12225341796875, 0.0185394287109375, 0.007648468017578125, 0.020599365234375, 0.1517333984375, 0.0120086669921875, 0.0537109375]]","[0.0, 0.0, 0.0, 0.0, 1.0, 0.0, 0.0, 0.0, 0.0, 0.0, 0.0, 0.0, 0.0, 0.0, 0.0, 0.0, 0.0, 0.0, 0.0, 0.0, 0.0, 0.0, 0.0, 0.0, 0.0, 0.0, 0.0, 0.0]"
17,/home/minasian/input/train/00eabc0c-bbb5-11e8-b2ba-ac1f6b6435d0,"[[0.9306640625, 0.07403564453125, 0.034423828125, 0.01097869873046875, 0.52685546875, 0.0958251953125, 0.003726959228515625, 0.0128936767578125, 0.0083160400390625, 0.006206512451171875, 0.0058441162109375, 0.0095977783203125, 0.006778717041015625, 0.015625, 0.0030002593994140625, 0.0080108642578125, 0.02880859375, 0.1116943359375, 0.01389312744140625, 0.677734375, 0.00991058349609375, 0.0163726806640625, 0.003406524658203125, 0.01079559326171875, 0.006927490234375, 0.042724609375, 0.02386474609375, 0.0123138427734375]]","[1.0, 0.0, 0.0, 0.0, 0.0, 0.0, 0.0, 0.0, 0.0, 0.0, 0.0, 0.0, 0.0, 0.0, 0.0, 0.0, 0.0, 0.0, 0.0, 1.0, 0.0, 0.0, 0.0, 0.0, 0.0, 0.0, 0.0, 0.0]"
18,/home/minasian/input/train/00f42960-bbb3-11e8-b2ba-ac1f6b6435d0,"[[0.77685546875, 0.0005774497985839844, 0.99755859375, 0.0046539306640625, 0.007049560546875, 0.0031566619873046875, 0.0021228790283203125, 0.0010976791381835938, 0.0005807876586914062, 0.0005283355712890625, 0.0006833076477050781, 0.001003265380859375, 0.0333251953125, 0.011993408203125, 0.0007891654968261719, 0.0012655258178710938, 0.0888671875, 0.01103973388671875, 0.000576019287109375, 0.00931549072265625, 9.047985076904297e-05, 0.01403045654296875, 0.002658843994140625, 0.0005831718444824219, 0.00775909423828125, 0.08489990234375, 0.0040740966796875, 0.0038814544677734375]]","[0.0, 0.0, 1.0, 0.0, 0.0, 0.0, 0.0, 0.0, 0.0, 0.0, 0.0, 0.0, 0.0, 0.0, 0.0, 0.0, 0.0, 0.0, 0.0, 0.0, 0.0, 0.0, 0.0, 0.0, 0.0, 0.0, 0.0, 0.0]"
19,/home/minasian/input/train/01028112-bbb4-11e8-b2ba-ac1f6b6435d0,"[[0.02398681640625, 0.025909423828125, 0.0017337799072265625, 0.00368499755859375, 0.0037994384765625, 0.0035152435302734375, 0.64111328125, 0.262451171875, 0.0162811279296875, 0.0131072998046875, 0.00848388671875, 0.2191162109375, 0.003101348876953125, 0.0036773681640625, 0.00666046142578125, 0.00749969482421875, 0.0017986297607421875, 0.29833984375, 0.0086669921875, 0.006534576416015625, 0.02105712890625, 0.02044677734375, 0.0008378028869628906, 0.08984375, 0.032135009765625, 0.16796875, 0.01161956787109375, 0.0215301513671875]]","[0.0, 0.0, 0.0, 0.0, 0.0, 0.0, 1.0, 0.0, 0.0, 0.0, 0.0, 0.0, 0.0, 0.0, 0.0, 0.0, 0.0, 0.0, 0.0, 0.0, 0.0, 0.0, 0.0, 0.0, 0.0, 0.0, 0.0, 0.0]"
20,/home/minasian/input/train/012c2c02-bba4-11e8-b2b9-ac1f6b6435d0,"[[0.7763671875, 0.006641387939453125, 0.93505859375, 0.07830810546875, 0.006450653076171875, 0.01367950439453125, 0.0009851455688476562, 0.071533203125, 0.003948211669921875, 0.0013027191162109375, 0.00406646728515625, 0.003314971923828125, 0.00011992454528808594, 0.0015850067138671875, 0.00043511390686035156, 0.0039043426513671875, 0.00022661685943603516, 0.00060272216796875, 0.0005865097045898438, 0.01143646240234375, 0.0009021759033203125, 0.005664825439453125, 0.0144805908203125, 0.048065185546875, 0.01122283935546875, 0.19091796875, 0.007648468017578125, 0.01358795166015625]]","[1.0, 0.0, 1.0, 0.0, 0.0, 0.0, 0.0, 0.0, 0.0, 0.0, 0.0, 0.0, 0.0, 0.0, 0.0, 0.0, 0.0, 0.0, 0.0, 0.0, 0.0, 0.0, 0.0, 0.0, 0.0, 0.0, 0.0, 0.0]"
21,/home/minasian/input/train/012ed836-bbc1-11e8-b2bb-ac1f6b6435d0,"[[0.5341796875, 0.0013074874877929688, 0.01849365234375, 0.0212249755859375, 0.00829315185546875, 0.024169921875, 0.1380615234375, 0.01352691650390625, 0.0027942657470703125, 0.006343841552734375, 0.008514404296875, 0.005462646484375, 0.007320404052734375, 0.006931304931640625, 0.0019197463989257812, 0.00231170654296875, 0.00334930419921875, 0.01334381103515625, 0.004238128662109375, 0.04803466796875, 0.0004811286926269531, 0.0210113525390625, 0.0021419525146484375, 0.9482421875, 0.0010442733764648438, 0.237548828125, 0.00025534629821777344, 0.0181884765625]]","[0.0, 0.0, 0.0, 0.0, 0.0, 0.0, 0.0, 0.0, 0.0, 0.0, 0.0, 0.0, 0.0, 0.0, 0.0, 0.0, 0.0, 0.0, 0.0, 0.0, 0.0, 0.0, 0.0, 1.0, 0.0, 0.0, 0.0, 0.0]"
22,/home/minasian/input/train/0142f5bc-bbc8-11e8-b2bc-ac1f6b6435d0,"[[0.5087890625, 0.96630859375, 0.06512451171875, 0.0024433135986328125, 0.06732177734375, 0.1968994140625, 0.0008039474487304688, 0.0015316009521484375, 0.0010013580322265625, 0.0189666748046875, 0.01111602783203125, 0.0009450912475585938, 0.0943603515625, 3.606081008911133e-05, 0.00040268898010253906, 0.0013837814331054688, 0.00025963783264160156, 0.00867462158203125, 3.218650817871094e-05, 0.02130126953125, 0.0002734661102294922, 0.0333251953125, 0.00096893310546875, 0.0151519775390625, 0.0004520416259765625, 0.31591796875, 0.0009708404541015625, 0.002758026123046875]]","[1.0, 1.0, 0.0, 0.0, 0.0, 0.0, 0.0, 0.0, 0.0, 0.0, 0.0, 0.0, 0.0, 0.0, 0.0, 0.0, 0.0, 0.0, 0.0, 0.0, 0.0, 0.0, 0.0, 0.0, 0.0, 0.0, 0.0, 0.0]"
23,/home/minasian/input/train/01437db2-bbc2-11e8-b2bb-ac1f6b6435d0,"[[0.02008056640625, 0.04205322265625, 0.08648681640625, 0.0021419525146484375, 0.87841796875, 0.01092529296875, 0.0007257461547851562, 0.01218414306640625, 0.0009765625, 0.0014066696166992188, 0.0011606216430664062, 0.024627685546875, 0.01549530029296875, 0.0014791488647460938, 0.020172119140625, 0.00803375244140625, 0.00028896331787109375, 0.01174163818359375, 0.01554107666015625, 0.038360595703125, 0.005901336669921875, 0.372802734375, 0.01085662841796875, 0.0080413818359375, 0.00988006591796875, 0.859375, 0.127685546875, 0.00693511962890625]]","[0.0, 0.0, 0.0, 0.0, 1.0, 0.0, 0.0, 0.0, 0.0, 0.0, 0.0, 0.0, 0.0, 0.0, 0.0, 0.0, 0.0, 0.0, 0.0, 0.0, 0.0, 0.0, 0.0, 0.0, 0.0, 1.0, 0.0, 0.0]"
24,/home/minasian/input/train/014a8bae-bba2-11e8-b2b9-ac1f6b6435d0,"[[0.253662109375, 0.03179931640625, 0.00827789306640625, 0.014678955078125, 0.83837890625, 0.04302978515625, 0.01708984375, 0.62744140625, 0.0254364013671875, 0.005138397216796875, 0.0041961669921875, 0.00943756103515625, 0.045379638671875, 0.0016279220581054688, 0.01788330078125, 0.006805419921875, 0.00904083251953125, 0.0173187255859375, 0.0018911361694335938, 0.134033203125, 0.0048828125, 0.00853729248046875, 0.0037288665771484375, 0.1334228515625, 0.00482940673828125, 0.0301513671875, 0.0053253173828125, 0.007343292236328125]]","[0.0, 0.0, 0.0, 0.0, 1.0, 0.0, 0.0, 0.0, 0.0, 0.0, 0.0, 0.0, 0.0, 0.0, 0.0, 0.0, 0.0, 0.0, 0.0, 0.0, 0.0, 0.0, 0.0, 0.0, 0.0, 1.0, 0.0, 0.0]"
25,/home/minasian/input/train/015f63c8-bba5-11e8-b2ba-ac1f6b6435d0,"[[0.5185546875, 0.03900146484375, 0.1910400390625, 0.0838623046875, 0.052032470703125, 0.138671875, 0.11920166015625, 0.283203125, 0.022491455078125, 0.03369140625, 0.032073974609375, 0.14404296875, 0.026702880859375, 0.0086212158203125, 0.02178955078125, 0.029388427734375, 0.03216552734375, 0.0225982666015625, 0.0137786865234375, 0.09375, 0.02642822265625, 0.12347412109375, 0.021148681640625, 0.301513671875, 0.0078887939453125, 0.4912109375, 0.012542724609375, 0.02099609375]]","[1.0, 0.0, 0.0, 0.0, 0.0, 0.0, 0.0, 0.0, 0.0, 0.0, 0.0, 0.0, 0.0, 0.0, 0.0, 0.0, 0.0, 0.0, 0.0, 0.0, 0.0, 0.0, 0.0, 0.0, 0.0, 0.0, 0.0, 0.0]"
26,/home/minasian/input/train/016b3df6-bba5-11e8-b2ba-ac1f6b6435d0,"[[0.338623046875, 0.099609375, 0.032470703125, 0.005786895751953125, 0.01313018798828125, 0.01451873779296875, 0.09600830078125, 0.02362060546875, 0.0018568038940429688, 0.005252838134765625, 0.004894256591796875, 0.046051025390625, 0.047271728515625, 0.00033664703369140625, 0.01282501220703125, 0.00882720947265625, 0.0264434814453125, 0.00298309326171875, 0.002437591552734375, 0.0684814453125, 0.0076751708984375, 0.94677734375, 0.082275390625, 0.1005859375, 0.001743316650390625, 0.7490234375, 0.0025539398193359375, 0.00537109375]]","[0.0, 1.0, 0.0, 0.0, 0.0, 0.0, 0.0, 0.0, 0.0, 0.0, 0.0, 0.0, 0.0, 0.0, 0.0, 0.0, 0.0, 0.0, 0.0, 0.0, 0.0, 1.0, 0.0, 0.0, 0.0, 1.0, 0.0, 0.0]"
27,/home/minasian/input/train/017e605a-bba7-11e8-b2ba-ac1f6b6435d0,"[[0.9443359375, 0.0031452178955078125, 0.2900390625, 0.093505859375, 0.06341552734375, 0.072998046875, 0.0012712478637695312, 0.072509765625, 0.00386810302734375, 0.004177093505859375, 0.00740814208984375, 0.0433349609375, 0.0045623779296875, 0.0214385986328125, 0.013702392578125, 0.006954193115234375, 0.004852294921875, 0.1199951171875, 0.007213592529296875, 0.0123291015625, 0.0012159347534179688, 0.08123779296875, 0.09771728515625, 0.04620361328125, 0.0154266357421875, 0.7021484375, 0.273681640625, 0.0065460205078125]]","[1.0, 0.0, 0.0, 0.0, 0.0, 0.0, 0.0, 0.0, 0.0, 0.0, 0.0, 0.0, 0.0, 0.0, 0.0, 0.0, 0.0, 1.0, 0.0, 0.0, 0.0, 0.0, 0.0, 0.0, 0.0, 1.0, 0.0, 0.0]"
28,/home/minasian/input/train/017f7748-bba6-11e8-b2ba-ac1f6b6435d0,"[[0.0262908935546875, 0.003993988037109375, 0.0179595947265625, 0.002925872802734375, 0.0072479248046875, 0.66162109375, 0.0282440185546875, 0.06707763671875, 0.01340484619140625, 0.00333404541015625, 0.0035572052001953125, 0.05743408203125, 0.0027751922607421875, 0.002155303955078125, 0.01500701904296875, 0.004405975341796875, 0.01525115966796875, 0.10003662109375, 0.0021610260009765625, 0.1529541015625, 0.00469970703125, 0.1148681640625, 0.005626678466796875, 0.12322998046875, 0.0231170654296875, 0.034942626953125, 0.34716796875, 0.00885772705078125]]","[0.0, 0.0, 0.0, 0.0, 0.0, 0.0, 0.0, 0.0, 0.0, 0.0, 0.0, 0.0, 0.0, 0.0, 0.0, 0.0, 0.0, 0.0, 0.0, 1.0, 0.0, 0.0, 0.0, 0.0, 0.0, 0.0, 0.0, 0.0]"
29,/home/minasian/input/train/01853df0-bbc3-11e8-b2bc-ac1f6b6435d0,"[[0.01458740234375, 0.07623291015625, 0.049163818359375, 0.05157470703125, 0.078857421875, 0.1800537109375, 0.1690673828125, 0.08929443359375, 0.0150146484375, 0.02337646484375, 0.01788330078125, 0.26953125, 0.01788330078125, 0.1253662109375, 0.049591064453125, 0.034759521484375, 0.083984375, 0.0182342529296875, 0.1375732421875, 0.2327880859375, 0.069580078125, 0.1302490234375, 0.03228759765625, 0.08404541015625, 0.01537322998046875, 0.263916015625, 0.039642333984375, 0.027374267578125]]","[0.0, 0.0, 0.0, 0.0, 0.0, 0.0, 0.0, 0.0, 0.0, 0.0, 0.0, 0.0, 0.0, 0.0, 0.0, 0.0, 0.0, 0.0, 0.0, 0.0, 0.0, 0.0, 0.0, 0.0, 0.0, 1.0, 0.0, 0.0]"
30,/home/minasian/input/train/01a2514a-bba7-11e8-b2ba-ac1f6b6435d0,"[[0.00402069091796875, 0.006031036376953125, 0.023040771484375, 0.0022449493408203125, 0.0196380615234375, 0.043701171875, 0.0103912353515625, 0.003986358642578125, 0.005237579345703125, 0.016082763671875, 0.008056640625, 0.009490966796875, 0.96728515625, 0.0171051025390625, 0.01294708251953125, 0.01690673828125, 0.0125274658203125, 0.0013942718505859375, 0.017730712890625, 0.005832672119140625, 0.003894805908203125, 0.0333251953125, 0.0271453857421875, 0.03173828125, 0.00601959228515625, 0.0071258544921875, 0.01092529296875, 0.00823211669921875]]","[0.0, 0.0, 0.0, 0.0, 0.0, 0.0, 0.0, 0.0, 0.0, 0.0, 0.0, 0.0, 0.0, 0.0, 0.0, 0.0, 0.0, 0.0, 0.0, 0.0, 0.0, 0.0, 0.0, 0.0, 0.0, 1.0, 0.0, 0.0]"
31,/home/minasian/input/train/01b0b65a-bbba-11e8-b2ba-ac1f6b6435d0,"[[0.49462890625, 0.06640625, 0.036529541015625, 0.036346435546875, 0.12298583984375, 0.17724609375, 0.057342529296875, 0.296875, 0.01180267333984375, 0.00891876220703125, 0.0137786865234375, 0.03857421875, 0.077880859375, 0.008544921875, 0.0196990966796875, 0.02581787109375, 0.01519012451171875, 0.0155487060546875, 0.06463623046875, 0.11175537109375, 0.0253448486328125, 0.480224609375, 0.06390380859375, 0.0810546875, 0.0197296142578125, 0.80419921875, 0.1533203125, 0.02276611328125]]","[1.0, 0.0, 0.0, 0.0, 0.0, 0.0, 0.0, 0.0, 0.0, 0.0, 0.0, 0.0, 0.0, 0.0, 0.0, 0.0, 0.0, 0.0, 0.0, 0.0, 0.0, 0.0, 0.0, 0.0, 0.0, 1.0, 0.0, 0.0]"
32,/home/minasian/input/train/01b7c7b8-bba8-11e8-b2ba-ac1f6b6435d0,"[[0.2939453125, 0.0166168212890625, 0.245361328125, 0.006816864013671875, 0.0072174072265625, 0.041046142578125, 0.0244598388671875, 0.1478271484375, 0.0046844482421875, 0.0140533447265625, 0.0198822021484375, 0.017303466796875, 0.035430908203125, 0.1688232421875, 0.0037174224853515625, 0.02459716796875, 0.043853759765625, 0.019866943359375, 0.038818359375, 0.11505126953125, 0.004642486572265625, 0.289794921875, 0.041229248046875, 0.1492919921875, 0.00482177734375, 0.2286376953125, 0.00969696044921875, 0.00922393798828125]]","[1.0, 0.0, 0.0, 0.0, 0.0, 0.0, 0.0, 0.0, 0.0, 0.0, 0.0, 0.0, 0.0, 0.0, 0.0, 0.0, 0.0, 0.0, 0.0, 1.0, 0.0, 0.0, 0.0, 0.0, 0.0, 0.0, 0.0, 0.0]"
33,/home/minasian/input/train/01b9584c-bbbe-11e8-b2ba-ac1f6b6435d0,"[[0.26416015625, 0.058258056640625, 0.093994140625, 0.0009508132934570312, 0.0215301513671875, 0.159423828125, 0.032562255859375, 0.048675537109375, 0.0008172988891601562, 0.00287628173828125, 0.0012559890747070312, 0.460205078125, 0.002532958984375, 0.012237548828125, 0.0026874542236328125, 0.004695892333984375, 0.015777587890625, 0.0008115768432617188, 0.0003342628479003906, 0.01496124267578125, 0.005306243896484375, 0.6396484375, 0.005466461181640625, 0.0245361328125, 0.003307342529296875, 0.2086181640625, 0.0011396408081054688, 0.0030765533447265625]]","[1.0, 0.0, 0.0, 0.0, 0.0, 0.0, 0.0, 0.0, 0.0, 0.0, 0.0, 0.0, 0.0, 0.0, 0.0, 0.0, 0.0, 0.0, 0.0, 0.0, 0.0, 0.0, 0.0, 0.0, 0.0, 1.0, 0.0, 0.0]"
34,/home/minasian/input/train/01bc1aa2-bbad-11e8-b2ba-ac1f6b6435d0,"[[0.51416015625, 0.019805908203125, 0.06402587890625, 0.005008697509765625, 0.04876708984375, 0.947265625, 0.00168609619140625, 0.0024509429931640625, 0.0029964447021484375, 0.0011577606201171875, 0.0005464553833007812, 0.014190673828125, 0.069091796875, 0.01336669921875, 0.047576904296875, 0.006931304931640625, 0.015289306640625, 0.0020275115966796875, 0.0004012584686279297, 0.00316619873046875, 0.002105712890625, 0.8369140625, 0.0428466796875, 0.0038623809814453125, 0.0020885467529296875, 0.06707763671875, 0.0643310546875, 0.00785064697265625]]","[1.0, 0.0, 0.0, 0.0, 0.0, 1.0, 0.0, 0.0, 0.0, 0.0, 0.0, 0.0, 0.0, 0.0, 0.0, 0.0, 0.0, 0.0, 0.0, 0.0, 0.0, 1.0, 0.0, 0.0, 0.0, 0.0, 0.0, 0.0]"
35,/home/minasian/input/train/01c36810-bb9a-11e8-b2b9-ac1f6b6435d0,"[[0.0889892578125, 0.027557373046875, 0.09869384765625, 0.01416778564453125, 0.048736572265625, 0.473388671875, 0.006206512451171875, 0.00571441650390625, 0.000995635986328125, 0.0010118484497070312, 0.0015010833740234375, 0.0256805419921875, 0.01141357421875, 0.0009503364562988281, 0.0181121826171875, 0.0030612945556640625, 0.008819580078125, 0.0198974609375, 0.003505706787109375, 0.00946807861328125, 0.0011243820190429688, 0.86376953125, 0.11920166015625, 0.031219482421875, 0.002147674560546875, 0.146484375, 0.01088714599609375, 0.0034656524658203125]]","[0.0, 0.0, 0.0, 0.0, 0.0, 1.0, 0.0, 0.0, 0.0, 0.0, 0.0, 0.0, 0.0, 0.0, 0.0, 0.0, 0.0, 0.0, 0.0, 0.0, 0.0, 1.0, 0.0, 0.0, 0.0, 0.0, 0.0, 0.0]"
36,/home/minasian/input/train/01cccde8-bba8-11e8-b2ba-ac1f6b6435d0,"[[0.09832763671875, 0.01113128662109375, 0.94873046875, 0.09033203125, 0.06439208984375, 0.0239410400390625, 0.056243896484375, 0.162109375, 0.0123748779296875, 0.0034942626953125, 0.002193450927734375, 0.004947662353515625, 0.0007023811340332031, 0.00039505958557128906, 0.061920166015625, 0.00998687744140625, 0.01494598388671875, 0.00716400146484375, 0.043609619140625, 0.054443359375, 0.00677490234375, 0.129150390625, 0.0157318115234375, 0.32666015625, 0.002643585205078125, 0.6142578125, 0.0214996337890625, 0.020263671875]]","[0.0, 0.0, 1.0, 0.0, 0.0, 0.0, 0.0, 0.0, 0.0, 0.0, 0.0, 0.0, 0.0, 0.0, 0.0, 0.0, 0.0, 0.0, 0.0, 0.0, 0.0, 0.0, 0.0, 0.0, 0.0, 1.0, 0.0, 0.0]"
37,/home/minasian/input/train/01d619aa-bbaf-11e8-b2ba-ac1f6b6435d0,"[[0.8779296875, 0.002269744873046875, 0.9912109375, 0.006443023681640625, 0.01482391357421875, 0.0029468536376953125, 0.0025177001953125, 0.0099334716796875, 0.0018215179443359375, 0.00160980224609375, 0.0007152557373046875, 0.2734375, 0.12841796875, 0.00350189208984375, 0.00223541259765625, 0.00904083251953125, 0.03948974609375, 0.0017881393432617188, 0.003017425537109375, 0.03131103515625, 0.00042939186096191406, 0.097900390625, 0.302978515625, 0.0057373046875, 0.005340576171875, 0.1932373046875, 0.00589752197265625, 0.003910064697265625]]","[1.0, 0.0, 1.0, 0.0, 0.0, 0.0, 0.0, 0.0, 0.0, 0.0, 0.0, 0.0, 0.0, 0.0, 0.0, 0.0, 0.0, 0.0, 0.0, 0.0, 0.0, 1.0, 0.0, 0.0, 0.0, 0.0, 0.0, 0.0]"
38,/home/minasian/input/train/01d6e4b8-bba8-11e8-b2ba-ac1f6b6435d0,"[[0.01776123046875, 0.017547607421875, 0.0218658447265625, 0.00732421875, 0.004962921142578125, 0.004924774169921875, 0.0146636962890625, 0.0105438232421875, 0.0006127357482910156, 0.00214385986328125, 0.0015125274658203125, 0.0294952392578125, 0.0026912689208984375, 0.010498046875, 0.0009646415710449219, 0.0028781890869140625, 0.0003390312194824219, 0.0034503936767578125, 0.055023193359375, 0.9638671875, 0.0170745849609375, 0.001251220703125, 0.004825592041015625, 0.006458282470703125, 0.001125335693359375, 0.93603515625, 0.0005478858947753906, 0.00519561767578125]]","[0.0, 0.0, 0.0, 0.0, 0.0, 0.0, 0.0, 0.0, 0.0, 0.0, 0.0, 0.0, 0.0, 0.0, 0.0, 0.0, 0.0, 0.0, 0.0, 1.0, 0.0, 0.0, 0.0, 0.0, 0.0, 1.0, 0.0, 0.0]"
39,/home/minasian/input/train/01dfa77a-bba2-11e8-b2b9-ac1f6b6435d0,"[[0.90283203125, 0.01617431640625, 0.00604248046875, 0.0056610107421875, 0.0073394775390625, 0.10650634765625, 0.002246856689453125, 0.029144287109375, 0.00029921531677246094, 0.0019969940185546875, 0.0012264251708984375, 0.0019311904907226562, 0.0252838134765625, 0.0005068778991699219, 0.0030307769775390625, 0.006519317626953125, 0.09381103515625, 0.0003058910369873047, 0.00839996337890625, 0.0016012191772460938, 0.0011653900146484375, 0.033172607421875, 0.0009851455688476562, 0.845703125, 9.989738464355469e-05, 0.33544921875, 0.0012798309326171875, 0.0003807544708251953]]","[1.0, 0.0, 0.0, 0.0, 0.0, 0.0, 0.0, 0.0, 0.0, 0.0, 0.0, 0.0, 0.0, 0.0, 0.0, 0.0, 0.0, 0.0, 0.0, 0.0, 0.0, 0.0, 0.0, 0.0, 0.0, 0.0, 0.0, 0.0]"
40,/home/minasian/input/train/01ebc542-bbbf-11e8-b2ba-ac1f6b6435d0,"[[0.91064453125, 0.0015993118286132812, 0.06549072265625, 0.0041961669921875, 0.0082550048828125, 0.07147216796875, 0.006275177001953125, 0.1182861328125, 0.0010204315185546875, 0.005947113037109375, 0.004764556884765625, 0.06365966796875, 0.0293731689453125, 0.0008363723754882812, 0.0010385513305664062, 0.00806427001953125, 0.01763916015625, 0.023529052734375, 0.0252838134765625, 0.150634765625, 0.005218505859375, 0.1895751953125, 0.0010318756103515625, 0.370361328125, 0.11273193359375, 0.391357421875, 0.0001806020736694336, 0.0024967193603515625]]","[1.0, 0.0, 0.0, 0.0, 0.0, 0.0, 0.0, 0.0, 0.0, 0.0, 0.0, 0.0, 0.0, 0.0, 0.0, 0.0, 0.0, 0.0, 0.0, 0.0, 0.0, 0.0, 0.0, 0.0, 0.0, 1.0, 0.0, 0.0]"
41,/home/minasian/input/train/01f58bec-bba4-11e8-b2b9-ac1f6b6435d0,"[[0.01531219482421875, 0.00255584716796875, 0.0224761962890625, 0.0007386207580566406, 0.0007271766662597656, 0.01152801513671875, 0.0179443359375, 0.0706787109375, 0.0020771026611328125, 0.00447845458984375, 0.006221771240234375, 0.00389862060546875, 0.07562255859375, 0.03192138671875, 0.01202392578125, 0.021240234375, 0.06805419921875, 0.006488800048828125, 0.0031719207763671875, 0.0254974365234375, 0.0020847320556640625, 0.68896484375, 0.019439697265625, 0.60888671875, 0.0025119781494140625, 0.10626220703125, 0.005802154541015625, 0.004749298095703125]]","[0.0, 0.0, 0.0, 0.0, 0.0, 0.0, 0.0, 0.0, 0.0, 0.0, 0.0, 0.0, 0.0, 0.0, 0.0, 0.0, 0.0, 0.0, 0.0, 0.0, 0.0, 0.0, 0.0, 1.0, 0.0, 0.0, 0.0, 0.0]"
42,/home/minasian/input/train/02056070-bba5-11e8-b2ba-ac1f6b6435d0,"[[0.188720703125, 0.875, 0.01219940185546875, 0.01483154296875, 0.900390625, 0.2066650390625, 0.00469207763671875, 0.99072265625, 0.0024051666259765625, 0.0016050338745117188, 0.0015726089477539062, 0.0036411285400390625, 0.00817108154296875, 0.00708770751953125, 0.0037021636962890625, 0.004215240478515625, 0.0011548995971679688, 0.001911163330078125, 0.003795623779296875, 0.004039764404296875, 0.000995635986328125, 0.003940582275390625, 0.0013828277587890625, 0.01058197021484375, 0.0026702880859375, 0.0201263427734375, 0.003864288330078125, 0.005100250244140625]]","[0.0, 1.0, 0.0, 0.0, 1.0, 0.0, 0.0, 1.0, 0.0, 0.0, 0.0, 0.0, 0.0, 0.0, 0.0, 0.0, 0.0, 0.0, 0.0, 0.0, 0.0, 0.0, 0.0, 0.0, 0.0, 0.0, 0.0, 0.0]"
43,/home/minasian/input/train/0207bdcc-bbb7-11e8-b2ba-ac1f6b6435d0,"[[0.2237548828125, 9.304285049438477e-05, 0.0097503662109375, 0.0005135536193847656, 0.0018701553344726562, 0.0008273124694824219, 0.9970703125, 0.00518035888671875, 0.001064300537109375, 0.0013837814331054688, 0.0009698867797851562, 0.0024394989013671875, 0.0003552436828613281, 0.00023674964904785156, 0.0003762245178222656, 0.0012683868408203125, 0.0028133392333984375, 0.00046539306640625, 0.0025463104248046875, 0.000423431396484375, 4.184246063232422e-05, 0.0278472900390625, 0.00037288665771484375, 0.0007486343383789062, 0.00032138824462890625, 0.00197601318359375, 0.0005741119384765625, 0.00763702392578125]]","[1.0, 0.0, 0.0, 0.0, 0.0, 0.0, 1.0, 0.0, 0.0, 0.0, 0.0, 0.0, 0.0, 0.0, 0.0, 0.0, 0.0, 0.0, 0.0, 0.0, 0.0, 0.0, 0.0, 0.0, 0.0, 0.0, 0.0, 0.0]"
44,/home/minasian/input/train/02101658-bbca-11e8-b2bc-ac1f6b6435d0,"[[0.31787109375, 0.004451751708984375, 0.063232421875, 0.00832366943359375, 0.024383544921875, 0.1400146484375, 0.0186004638671875, 0.005924224853515625, 0.00202178955078125, 0.0035343170166015625, 0.0035686492919921875, 0.00044083595275878906, 0.002216339111328125, 0.00565338134765625, 0.0010519027709960938, 0.004413604736328125, 0.01177215576171875, 0.0537109375, 0.01922607421875, 0.044769287109375, 0.0005583763122558594, 0.0732421875, 0.2239990234375, 0.05517578125, 0.0012903213500976562, 0.6865234375, 0.00012826919555664062, 0.0037174224853515625]]","[0.0, 0.0, 0.0, 0.0, 0.0, 0.0, 0.0, 0.0, 0.0, 0.0, 0.0, 0.0, 0.0, 0.0, 0.0, 0.0, 0.0, 0.0, 0.0, 0.0, 0.0, 0.0, 0.0, 1.0, 0.0, 0.0, 0.0, 0.0]"
45,/home/minasian/input/train/0216d526-bbbe-11e8-b2ba-ac1f6b6435d0,"[[0.002429962158203125, 0.00031447410583496094, 0.0025424957275390625, 0.00859832763671875, 0.006565093994140625, 0.0076141357421875, 0.0030155181884765625, 0.0086212158203125, 0.043792724609375, 0.006031036376953125, 0.003513336181640625, 0.0005183219909667969, 0.0055389404296875, 0.002468109130859375, 0.98193359375, 0.005828857421875, 0.92333984375, 0.01236724853515625, 0.004749298095703125, 0.0003409385681152344, 0.0035343170166015625, 0.00902557373046875, 0.01549530029296875, 0.004138946533203125, 0.0060272216796875, 0.031646728515625, 0.0234222412109375, 0.01132965087890625]]","[0.0, 0.0, 0.0, 0.0, 0.0, 0.0, 0.0, 0.0, 0.0, 0.0, 0.0, 0.0, 0.0, 0.0, 1.0, 0.0, 1.0, 0.0, 0.0, 0.0, 0.0, 0.0, 0.0, 0.0, 0.0, 0.0, 0.0, 0.0]"
46,/home/minasian/input/train/02178fc0-bbaf-11e8-b2ba-ac1f6b6435d0,"[[0.8681640625, 0.029541015625, 0.06329345703125, 0.1146240234375, 0.06671142578125, 0.07037353515625, 0.0211639404296875, 0.4580078125, 0.028900146484375, 0.03985595703125, 0.033172607421875, 0.05181884765625, 0.0158233642578125, 0.024078369140625, 0.0122528076171875, 0.0311737060546875, 0.006710052490234375, 0.04937744140625, 0.088134765625, 0.08197021484375, 0.016143798828125, 0.1700439453125, 0.20654296875, 0.251220703125, 0.05670166015625, 0.31689453125, 0.03656005859375, 0.043548583984375]]","[1.0, 0.0, 0.0, 0.0, 0.0, 0.0, 0.0, 1.0, 0.0, 0.0, 0.0, 0.0, 0.0, 0.0, 0.0, 0.0, 0.0, 0.0, 0.0, 0.0, 0.0, 0.0, 0.0, 0.0, 0.0, 0.0, 0.0, 0.0]"
47,/home/minasian/input/train/0219faa8-bba5-11e8-b2ba-ac1f6b6435d0,"[[0.00792694091796875, 0.03631591796875, 0.022552490234375, 0.0010766983032226562, 0.00632476806640625, 0.049468994140625, 0.0013599395751953125, 0.0204620361328125, 0.0016469955444335938, 0.0024662017822265625, 0.0018377304077148438, 0.04534912109375, 0.093017578125, 0.0202789306640625, 0.0030422210693359375, 0.00803375244140625, 0.0009531974792480469, 0.001453399658203125, 0.006168365478515625, 0.00322723388671875, 0.01824951171875, 0.98388671875, 0.042083740234375, 0.01224517822265625, 0.009490966796875, 0.00321197509765625, 0.0060577392578125, 0.0020008087158203125]]","[0.0, 0.0, 0.0, 0.0, 0.0, 0.0, 0.0, 0.0, 0.0, 0.0, 0.0, 0.0, 0.0, 0.0, 0.0, 0.0, 0.0, 0.0, 0.0, 0.0, 0.0, 1.0, 0.0, 0.0, 0.0, 0.0, 0.0, 0.0]"
48,/home/minasian/input/train/021a01b6-bba9-11e8-b2ba-ac1f6b6435d0,"[[0.6435546875, 0.2568359375, 0.08355712890625, 0.0227508544921875, 0.2259521484375, 0.2294921875, 0.0751953125, 0.24365234375, 0.0531005859375, 0.0084686279296875, 0.007904052734375, 0.16064453125, 0.039581298828125, 0.008636474609375, 0.032745361328125, 0.02630615234375, 0.0268402099609375, 0.004573822021484375, 0.0127410888671875, 0.09967041015625, 0.019927978515625, 0.08966064453125, 0.0089569091796875, 0.127197265625, 0.0153045654296875, 0.72265625, 0.0286865234375, 0.04412841796875]]","[1.0, 0.0, 0.0, 0.0, 1.0, 0.0, 0.0, 0.0, 0.0, 0.0, 0.0, 0.0, 0.0, 0.0, 0.0, 0.0, 0.0, 0.0, 0.0, 0.0, 0.0, 0.0, 0.0, 0.0, 0.0, 1.0, 0.0, 0.0]"
49,/home/minasian/input/train/021eacc4-bba0-11e8-b2b9-ac1f6b6435d0,"[[0.12078857421875, 0.105712890625, 0.95751953125, 0.0116424560546875, 0.0295257568359375, 0.0063629150390625, 0.0003509521484375, 0.0012407302856445312, 0.00414276123046875, 0.0007038116455078125, 0.001445770263671875, 0.006404876708984375, 3.8564205169677734e-05, 0.0008792877197265625, 6.574392318725586e-05, 0.004940032958984375, 0.0011882781982421875, 0.0038166046142578125, 0.0017232894897460938, 0.0010023117065429688, 0.0018682479858398438, 0.000965118408203125, 0.024169921875, 0.004367828369140625, 0.004405975341796875, 0.016937255859375, 0.006633758544921875, 0.0008273124694824219]]","[0.0, 0.0, 1.0, 0.0, 0.0, 0.0, 0.0, 0.0, 0.0, 0.0, 0.0, 0.0, 0.0, 0.0, 0.0, 0.0, 0.0, 0.0, 0.0, 0.0, 0.0, 0.0, 0.0, 0.0, 0.0, 0.0, 0.0, 0.0]"
50,/home/minasian/input/train/0232898a-bbbc-11e8-b2ba-ac1f6b6435d0,"[[0.1044921875, 0.0088043212890625, 0.16845703125, 0.004451751708984375, 0.0017414093017578125, 0.044219970703125, 0.29638671875, 0.02203369140625, 0.008026123046875, 0.0033111572265625, 0.005054473876953125, 0.031707763671875, 0.01041412353515625, 0.00815582275390625, 0.0020084381103515625, 0.0394287109375, 0.015899658203125, 0.0165863037109375, 0.01052093505859375, 0.021087646484375, 0.0074462890625, 0.248779296875, 0.006740570068359375, 0.441650390625, 0.0029354095458984375, 0.6630859375, 0.0210418701171875, 0.007358551025390625]]","[0.0, 0.0, 0.0, 0.0, 0.0, 0.0, 0.0, 0.0, 0.0, 0.0, 0.0, 0.0, 0.0, 0.0, 0.0, 0.0, 0.0, 0.0, 0.0, 0.0, 0.0, 0.0, 0.0, 0.0, 0.0, 1.0, 0.0, 0.0]"
51,/home/minasian/input/train/0232b2ba-bbbd-11e8-b2ba-ac1f6b6435d0,"[[0.004390716552734375, 0.00920867919921875, 0.001895904541015625, 0.00444793701171875, 0.007602691650390625, 0.00865936279296875, 0.01055145263671875, 0.0037136077880859375, 0.00714111328125, 0.00647735595703125, 0.0032291412353515625, 0.98974609375, 0.004894256591796875, 0.002765655517578125, 0.00563812255859375, 0.00423431396484375, 0.0013093948364257812, 0.0009555816650390625, 0.0022125244140625, 0.0008921623229980469, 0.0007367134094238281, 0.0100555419921875, 0.0015201568603515625, 0.00405120849609375, 0.002849578857421875, 0.00951385498046875, 0.0004820823669433594, 0.00562286376953125]]","[0.0, 0.0, 0.0, 0.0, 0.0, 0.0, 0.0, 0.0, 0.0, 0.0, 0.0, 1.0, 0.0, 0.0, 0.0, 0.0, 0.0, 0.0, 0.0, 0.0, 0.0, 0.0, 0.0, 0.0, 0.0, 0.0, 0.0, 0.0]"
52,/home/minasian/input/train/0241b984-bb9c-11e8-b2b9-ac1f6b6435d0,"[[0.30908203125, 0.0760498046875, 0.63427734375, 0.324462890625, 0.037689208984375, 0.0714111328125, 0.007579803466796875, 0.0228271484375, 0.0183258056640625, 0.01183319091796875, 0.01105499267578125, 0.0110626220703125, 0.004665374755859375, 0.005130767822265625, 0.0130615234375, 0.01568603515625, 0.040252685546875, 0.03094482421875, 0.02191162109375, 0.03759765625, 0.00923919677734375, 0.0247344970703125, 0.04833984375, 0.0411376953125, 0.0163116455078125, 0.037139892578125, 0.03424072265625, 0.02447509765625]]","[0.0, 0.0, 1.0, 0.0, 0.0, 0.0, 0.0, 0.0, 0.0, 0.0, 0.0, 0.0, 0.0, 0.0, 0.0, 0.0, 0.0, 0.0, 0.0, 0.0, 0.0, 0.0, 0.0, 0.0, 0.0, 0.0, 0.0, 0.0]"
53,/home/minasian/input/train/0246331e-bbc0-11e8-b2bb-ac1f6b6435d0,"[[0.214599609375, 0.003643035888671875, 0.0198211669921875, 0.003326416015625, 0.84326171875, 0.222412109375, 0.0276641845703125, 0.022003173828125, 0.00449371337890625, 0.002185821533203125, 0.005153656005859375, 0.01105499267578125, 0.0010671615600585938, 0.003650665283203125, 0.002105712890625, 0.00403594970703125, 0.0152435302734375, 0.009796142578125, 0.002079010009765625, 0.01456451416015625, 0.003650665283203125, 0.051849365234375, 0.007244110107421875, 0.03167724609375, 0.00957489013671875, 0.0281982421875, 0.130126953125, 0.005649566650390625]]","[0.0, 0.0, 0.0, 0.0, 1.0, 0.0, 0.0, 0.0, 0.0, 0.0, 0.0, 0.0, 0.0, 0.0, 0.0, 0.0, 0.0, 0.0, 0.0, 0.0, 0.0, 0.0, 0.0, 0.0, 0.0, 0.0, 0.0, 0.0]"
54,/home/minasian/input/train/024e7bec-bbc9-11e8-b2bc-ac1f6b6435d0,"[[0.59423828125, 0.0699462890625, 0.14599609375, 0.322021484375, 0.11767578125, 0.061370849609375, 0.035858154296875, 0.12261962890625, 0.00628662109375, 0.006847381591796875, 0.007434844970703125, 0.419189453125, 0.03375244140625, 0.006862640380859375, 0.03167724609375, 0.0292205810546875, 0.0263824462890625, 0.00650787353515625, 0.01253509521484375, 0.1488037109375, 0.00609588623046875, 0.12481689453125, 0.00804901123046875, 0.11053466796875, 0.002346038818359375, 0.451171875, 0.1588134765625, 0.0074310302734375]]","[1.0, 0.0, 0.0, 0.0, 0.0, 0.0, 0.0, 0.0, 0.0, 0.0, 0.0, 0.0, 0.0, 0.0, 0.0, 0.0, 0.0, 0.0, 0.0, 0.0, 0.0, 0.0, 0.0, 0.0, 0.0, 1.0, 0.0, 0.0]"
55,/home/minasian/input/train/0266a4f8-bbc7-11e8-b2bc-ac1f6b6435d0,"[[0.11505126953125, 0.0198211669921875, 0.037994384765625, 0.01153564453125, 0.210693359375, 0.044281005859375, 0.09814453125, 0.074951171875, 0.0109710693359375, 0.018157958984375, 0.0175323486328125, 0.1961669921875, 0.0244903564453125, 0.00818634033203125, 0.064208984375, 0.01560211181640625, 0.143798828125, 0.0079345703125, 0.04315185546875, 0.023895263671875, 0.0057830810546875, 0.1651611328125, 0.11749267578125, 0.0755615234375, 0.01251220703125, 0.89013671875, 0.060546875, 0.004680633544921875]]","[0.0, 0.0, 0.0, 0.0, 0.0, 0.0, 0.0, 0.0, 0.0, 0.0, 0.0, 0.0, 0.0, 0.0, 0.0, 0.0, 0.0, 0.0, 0.0, 0.0, 0.0, 0.0, 0.0, 0.0, 0.0, 1.0, 0.0, 0.0]"
56,/home/minasian/input/train/027a702a-bbca-11e8-b2bc-ac1f6b6435d0,"[[0.1524658203125, 0.006481170654296875, 0.98876953125, 0.0200347900390625, 0.016387939453125, 0.0249786376953125, 0.01038360595703125, 0.01763916015625, 0.042724609375, 0.00666046142578125, 0.006496429443359375, 0.014801025390625, 0.0278167724609375, 0.033050537109375, 0.019866943359375, 0.0185089111328125, 0.1915283203125, 0.01047515869140625, 0.009307861328125, 0.02154541015625, 0.007076263427734375, 0.732421875, 0.1451416015625, 0.07501220703125, 0.00823211669921875, 0.263427734375, 0.0188446044921875, 0.01059722900390625]]","[0.0, 0.0, 1.0, 0.0, 0.0, 0.0, 0.0, 0.0, 0.0, 0.0, 0.0, 0.0, 0.0, 0.0, 0.0, 0.0, 0.0, 0.0, 0.0, 0.0, 0.0, 0.0, 1.0, 0.0, 0.0, 0.0, 0.0, 0.0]"
57,/home/minasian/input/train/027c5df4-bbb6-11e8-b2ba-ac1f6b6435d0,"[[0.92431640625, 0.0031890869140625, 0.3408203125, 0.03265380859375, 0.0020618438720703125, 0.120361328125, 0.022064208984375, 0.0228118896484375, 0.0029544830322265625, 0.0019273757934570312, 0.007167816162109375, 0.00585174560546875, 0.002658843994140625, 0.0029926300048828125, 0.7265625, 0.0067291259765625, 0.0267791748046875, 0.00189971923828125, 0.002010345458984375, 0.030731201171875, 0.005245208740234375, 0.00262451171875, 8.308887481689453e-05, 0.02587890625, 0.0003883838653564453, 0.09393310546875, 0.004016876220703125, 0.002452850341796875]]","[1.0, 0.0, 0.0, 0.0, 0.0, 0.0, 0.0, 0.0, 0.0, 0.0, 0.0, 0.0, 0.0, 0.0, 1.0, 0.0, 0.0, 0.0, 0.0, 0.0, 0.0, 0.0, 0.0, 0.0, 0.0, 0.0, 0.0, 0.0]"
58,/home/minasian/input/train/028a827a-bba8-11e8-b2ba-ac1f6b6435d0,"[[0.10736083984375, 0.004909515380859375, 0.97509765625, 0.03082275390625, 0.2186279296875, 0.0026874542236328125, 0.0007572174072265625, 0.07513427734375, 0.00466156005859375, 0.0009760856628417969, 0.0022983551025390625, 0.01197052001953125, 0.0006508827209472656, 0.003940582275390625, 0.0012655258178710938, 0.01071929931640625, 0.0127716064453125, 0.008270263671875, 0.0002315044403076172, 0.0029506683349609375, 0.0028820037841796875, 0.005573272705078125, 0.0032444000244140625, 0.020263671875, 0.00327301025390625, 0.00850677490234375, 0.0236968994140625, 0.0027866363525390625]]","[0.0, 0.0, 1.0, 0.0, 0.0, 0.0, 0.0, 0.0, 0.0, 0.0, 0.0, 0.0, 0.0, 0.0, 0.0, 0.0, 0.0, 0.0, 0.0, 0.0, 0.0, 0.0, 0.0, 0.0, 0.0, 0.0, 0.0, 0.0]"
59,/home/minasian/input/train/028e8954-bbbe-11e8-b2ba-ac1f6b6435d0,"[[0.0362548828125, 0.002384185791015625, 0.0550537109375, 0.011077880859375, 0.0044708251953125, 0.003200531005859375, 0.0164947509765625, 0.0024585723876953125, 0.007205963134765625, 0.0047607421875, 0.0016727447509765625, 0.00339508056640625, 0.01291656494140625, 0.00018787384033203125, 0.99072265625, 0.0047760009765625, 0.0261688232421875, 0.005321502685546875, 0.005977630615234375, 0.001476287841796875, 0.0014085769653320312, 0.004764556884765625, 0.00025081634521484375, 0.002685546875, 0.0026378631591796875, 0.01271820068359375, 0.00682830810546875, 0.00542449951171875]]","[0.0, 0.0, 0.0, 0.0, 0.0, 0.0, 0.0, 0.0, 0.0, 0.0, 0.0, 0.0, 0.0, 0.0, 1.0, 0.0, 0.0, 0.0, 0.0, 0.0, 0.0, 0.0, 0.0, 0.0, 0.0, 0.0, 0.0, 0.0]"
60,/home/minasian/input/train/0290c330-bb9c-11e8-b2b9-ac1f6b6435d0,"[[0.00131988525390625, 0.002071380615234375, 0.0266571044921875, 0.00846099853515625, 0.00394439697265625, 0.000885009765625, 0.0175628662109375, 0.0003693103790283203, 0.00041365623474121094, 0.003215789794921875, 0.0022068023681640625, 3.540515899658203e-05, 0.00034046173095703125, 0.125732421875, 0.0006175041198730469, 0.00618743896484375, 0.002414703369140625, 0.0009670257568359375, 0.0028476715087890625, 0.0105133056640625, 0.0009517669677734375, 0.0223236083984375, 0.0016870498657226562, 0.002292633056640625, 0.000507354736328125, 0.96923828125, 0.98974609375, 0.0012140274047851562]]","[0.0, 0.0, 0.0, 0.0, 0.0, 0.0, 0.0, 0.0, 0.0, 0.0, 0.0, 0.0, 0.0, 0.0, 0.0, 0.0, 0.0, 0.0, 0.0, 0.0, 0.0, 0.0, 0.0, 0.0, 0.0, 1.0, 1.0, 0.0]"
61,/home/minasian/input/train/029df10a-bbaf-11e8-b2ba-ac1f6b6435d0,"[[0.342529296875, 0.005176544189453125, 0.041168212890625, 0.0782470703125, 0.6708984375, 0.240478515625, 0.01065826416015625, 0.0237274169921875, 0.0087127685546875, 0.004627227783203125, 0.00771331787109375, 0.1453857421875, 0.014373779296875, 0.140869140625, 0.0183258056640625, 0.01183319091796875, 0.032318115234375, 0.0017728805541992188, 0.09014892578125, 0.034027099609375, 0.00370025634765625, 0.05450439453125, 0.00547027587890625, 0.011627197265625, 0.0684814453125, 0.15478515625, 0.0748291015625, 0.058349609375]]","[0.0, 0.0, 0.0, 0.0, 1.0, 0.0, 0.0, 0.0, 0.0, 0.0, 0.0, 0.0, 0.0, 0.0, 0.0, 0.0, 0.0, 0.0, 0.0, 0.0, 0.0, 0.0, 0.0, 0.0, 0.0, 0.0, 0.0, 0.0]"
62,/home/minasian/input/train/02a13382-bbb0-11e8-b2ba-ac1f6b6435d0,"[[0.79736328125, 0.00678253173828125, 0.01446533203125, 0.01508331298828125, 0.0482177734375, 0.41015625, 0.0252685546875, 0.03570556640625, 0.0048370361328125, 0.00890350341796875, 0.007965087890625, 0.1383056640625, 0.00568389892578125, 0.0247344970703125, 0.00923919677734375, 0.0066070556640625, 0.0178375244140625, 0.007114410400390625, 0.005115509033203125, 0.02008056640625, 0.003337860107421875, 0.1429443359375, 0.412841796875, 0.09539794921875, 0.0135498046875, 0.042694091796875, 0.002803802490234375, 0.00543212890625]]","[1.0, 0.0, 0.0, 0.0, 0.0, 0.0, 0.0, 0.0, 0.0, 0.0, 0.0, 0.0, 0.0, 0.0, 0.0, 0.0, 0.0, 0.0, 0.0, 0.0, 0.0, 0.0, 0.0, 0.0, 0.0, 0.0, 0.0, 0.0]"
63,/home/minasian/input/train/02ae4dca-bbaa-11e8-b2ba-ac1f6b6435d0,"[[0.326904296875, 0.01447296142578125, 0.014068603515625, 0.01403045654296875, 0.08197021484375, 0.04681396484375, 0.0253143310546875, 0.6015625, 0.00676727294921875, 0.01253509521484375, 0.00952911376953125, 0.059967041015625, 0.00722503662109375, 0.005634307861328125, 0.021453857421875, 0.011810302734375, 0.057464599609375, 0.00930023193359375, 0.044952392578125, 0.10443115234375, 0.0212860107421875, 0.0102996826171875, 0.0171356201171875, 0.02398681640625, 0.1795654296875, 0.0191192626953125, 0.437255859375, 0.045684814453125]]","[0.0, 0.0, 0.0, 0.0, 0.0, 0.0, 0.0, 0.0, 0.0, 0.0, 0.0, 0.0, 0.0, 0.0, 0.0, 0.0, 0.0, 0.0, 0.0, 0.0, 0.0, 0.0, 0.0, 0.0, 0.0, 0.0, 1.0, 0.0]"
64,/home/minasian/input/train/02d266c4-bbaa-11e8-b2ba-ac1f6b6435d0,"[[0.96337890625, 0.00296783447265625, 0.005615234375, 0.02392578125, 0.004611968994140625, 0.064453125, 0.001613616943359375, 0.81787109375, 0.0094146728515625, 0.0022335052490234375, 0.004261016845703125, 0.005329132080078125, 0.0843505859375, 0.0011739730834960938, 0.0007162094116210938, 0.01250457763671875, 0.0014200210571289062, 0.03607177734375, 0.046722412109375, 0.023284912109375, 0.03466796875, 0.0172576904296875, 0.00042557716369628906, 0.07537841796875, 0.0010633468627929688, 0.1781005859375, 0.0006885528564453125, 0.0013780593872070312]]","[1.0, 0.0, 0.0, 0.0, 0.0, 0.0, 0.0, 1.0, 0.0, 0.0, 0.0, 0.0, 0.0, 0.0, 0.0, 0.0, 0.0, 0.0, 0.0, 0.0, 0.0, 0.0, 0.0, 0.0, 0.0, 1.0, 0.0, 0.0]"
65,/home/minasian/input/train/02e5cb9a-bba7-11e8-b2ba-ac1f6b6435d0,"[[0.06475830078125, 0.01030731201171875, 0.0193634033203125, 0.01861572265625, 0.97998046875, 0.021026611328125, 0.26708984375, 0.018310546875, 0.0043487548828125, 0.002349853515625, 0.00264739990234375, 0.01493072509765625, 0.0012969970703125, 0.005889892578125, 0.148681640625, 0.0037860870361328125, 0.0068206787109375, 0.0022258758544921875, 0.0802001953125, 0.0615234375, 0.007442474365234375, 0.02752685546875, 0.0007739067077636719, 0.0202178955078125, 0.0029506683349609375, 0.705078125, 0.0111846923828125, 0.01399993896484375]]","[0.0, 0.0, 0.0, 0.0, 1.0, 0.0, 0.0, 0.0, 0.0, 0.0, 0.0, 0.0, 0.0, 0.0, 0.0, 0.0, 0.0, 0.0, 0.0, 0.0, 0.0, 0.0, 0.0, 0.0, 0.0, 1.0, 0.0, 0.0]"
66,/home/minasian/input/train/0302db0a-bbc4-11e8-b2bc-ac1f6b6435d0,"[[0.77001953125, 0.0292205810546875, 0.16455078125, 0.01451873779296875, 0.061492919921875, 0.491455078125, 0.06341552734375, 0.06964111328125, 0.030548095703125, 0.028106689453125, 0.041290283203125, 0.2275390625, 0.1754150390625, 0.01873779296875, 0.058563232421875, 0.08148193359375, 0.0203857421875, 0.007904052734375, 0.0792236328125, 0.09210205078125, 0.00878143310546875, 0.1278076171875, 0.112060546875, 0.062744140625, 0.028472900390625, 0.052154541015625, 0.20361328125, 0.040283203125]]","[0.0, 0.0, 0.0, 0.0, 0.0, 0.0, 0.0, 0.0, 0.0, 0.0, 0.0, 0.0, 0.0, 0.0, 0.0, 0.0, 0.0, 0.0, 0.0, 1.0, 0.0, 0.0, 0.0, 0.0, 0.0, 0.0, 0.0, 0.0]"
67,/home/minasian/input/train/030822be-bb9b-11e8-b2b9-ac1f6b6435d0,"[[0.0343017578125, 0.0030994415283203125, 0.11444091796875, 0.01220703125, 0.018035888671875, 0.02685546875, 0.0272216796875, 0.08111572265625, 0.0078277587890625, 0.00907135009765625, 0.0087890625, 0.0169219970703125, 0.006427764892578125, 0.00534820556640625, 0.035858154296875, 0.0158233642578125, 0.06689453125, 0.1446533203125, 0.045745849609375, 0.308837890625, 0.01085662841796875, 0.2412109375, 0.00484466552734375, 0.12384033203125, 0.00739288330078125, 0.3115234375, 0.357421875, 0.0053558349609375]]","[0.0, 0.0, 0.0, 0.0, 0.0, 0.0, 0.0, 0.0, 0.0, 0.0, 0.0, 0.0, 0.0, 0.0, 0.0, 0.0, 0.0, 0.0, 0.0, 0.0, 0.0, 0.0, 0.0, 0.0, 0.0, 1.0, 0.0, 0.0]"
68,/home/minasian/input/train/030b6ee2-bbbe-11e8-b2ba-ac1f6b6435d0,"[[0.11865234375, 0.0249176025390625, 0.055908203125, 0.04486083984375, 0.09765625, 0.53076171875, 0.05584716796875, 0.053466796875, 0.006500244140625, 0.01154327392578125, 0.0092620849609375, 0.0748291015625, 0.0196685791015625, 0.036041259765625, 0.1142578125, 0.01523590087890625, 0.0341796875, 0.0638427734375, 0.036529541015625, 0.25146484375, 0.006717681884765625, 0.1923828125, 0.00884246826171875, 0.22705078125, 0.007274627685546875, 0.351806640625, 0.06195068359375, 0.0308990478515625]]","[0.0, 0.0, 0.0, 0.0, 0.0, 0.0, 0.0, 0.0, 0.0, 0.0, 0.0, 0.0, 0.0, 0.0, 0.0, 0.0, 0.0, 1.0, 0.0, 0.0, 0.0, 1.0, 0.0, 0.0, 0.0, 0.0, 0.0, 0.0]"
69,/home/minasian/input/train/0317d17a-bba8-11e8-b2ba-ac1f6b6435d0,"[[0.10577392578125, 0.07861328125, 0.02337646484375, 0.004486083984375, 0.0112762451171875, 0.11785888671875, 0.128173828125, 0.62744140625, 0.042266845703125, 0.0156402587890625, 0.00836944580078125, 0.029876708984375, 0.01168060302734375, 0.1253662109375, 0.0083465576171875, 0.008392333984375, 0.0223846435546875, 0.040191650390625, 0.0212860107421875, 0.1416015625, 0.007598876953125, 0.054107666015625, 0.031341552734375, 0.2265625, 0.028564453125, 0.364013671875, 0.024169921875, 0.1131591796875]]","[0.0, 0.0, 0.0, 0.0, 0.0, 0.0, 0.0, 1.0, 0.0, 0.0, 0.0, 0.0, 0.0, 0.0, 0.0, 0.0, 0.0, 0.0, 0.0, 0.0, 0.0, 0.0, 0.0, 0.0, 0.0, 0.0, 0.0, 0.0]"
70,/home/minasian/input/train/03181d4e-bbb0-11e8-b2ba-ac1f6b6435d0,"[[0.08648681640625, 0.0027484893798828125, 0.01290130615234375, 0.0006957054138183594, 0.0155029296875, 0.0102691650390625, 0.04022216796875, 0.1334228515625, 0.0023784637451171875, 0.0015649795532226562, 0.002223968505859375, 0.0256805419921875, 0.0180816650390625, 0.058349609375, 0.0009851455688476562, 0.001850128173828125, 0.00023639202117919922, 0.0005292892456054688, 0.0001608133316040039, 0.0006456375122070312, 0.0006394386291503906, 0.7587890625, 0.07525634765625, 0.040802001953125, 0.03607177734375, 0.361328125, 0.005550384521484375, 0.01403045654296875]]","[0.0, 0.0, 0.0, 0.0, 0.0, 0.0, 0.0, 0.0, 0.0, 0.0, 0.0, 0.0, 0.0, 0.0, 0.0, 0.0, 0.0, 0.0, 0.0, 0.0, 0.0, 1.0, 0.0, 0.0, 1.0, 0.0, 0.0, 0.0]"
71,/home/minasian/input/train/0329744e-bbac-11e8-b2ba-ac1f6b6435d0,"[[0.465087890625, 0.0053253173828125, 0.057098388671875, 0.0064544677734375, 0.023651123046875, 0.251220703125, 0.0272369384765625, 0.032989501953125, 0.002117156982421875, 0.005115509033203125, 0.007732391357421875, 0.01971435546875, 0.00408935546875, 0.01239013671875, 0.0132293701171875, 0.0034427642822265625, 0.0947265625, 0.00704193115234375, 0.0009927749633789062, 0.0222625732421875, 0.0009684562683105469, 0.08197021484375, 0.1895751953125, 0.056640625, 0.0638427734375, 0.08251953125, 0.0016717910766601562, 0.0853271484375]]","[0.0, 0.0, 0.0, 0.0, 0.0, 0.0, 0.0, 0.0, 0.0, 0.0, 0.0, 0.0, 0.0, 0.0, 0.0, 0.0, 0.0, 0.0, 0.0, 0.0, 0.0, 0.0, 1.0, 0.0, 0.0, 0.0, 0.0, 0.0]"
72,/home/minasian/input/train/032ae03c-bbc9-11e8-b2bc-ac1f6b6435d0,"[[0.89794921875, 0.0010833740234375, 0.0025501251220703125, 0.0011882781982421875, 0.004634857177734375, 0.2333984375, 0.002948760986328125, 0.82568359375, 0.00141143798828125, 0.0011043548583984375, 0.00283050537109375, 0.0011453628540039062, 0.1163330078125, 0.007404327392578125, 0.003864288330078125, 0.00566864013671875, 0.003856658935546875, 0.0006470680236816406, 0.001979827880859375, 0.004085540771484375, 0.004070281982421875, 0.03131103515625, 0.05999755859375, 0.061187744140625, 0.0031528472900390625, 0.08367919921875, 0.00022912025451660156, 0.00276947021484375]]","[1.0, 0.0, 0.0, 0.0, 0.0, 0.0, 0.0, 1.0, 0.0, 0.0, 0.0, 0.0, 0.0, 0.0, 0.0, 0.0, 0.0, 0.0, 0.0, 0.0, 0.0, 0.0, 0.0, 0.0, 0.0, 0.0, 0.0, 0.0]"
73,/home/minasian/input/train/03371f58-bbc6-11e8-b2bc-ac1f6b6435d0,"[[0.9599609375, 0.050628662109375, 0.73046875, 0.343017578125, 0.00995635986328125, 0.1348876953125, 0.0108642578125, 0.052825927734375, 0.0362548828125, 0.01102447509765625, 0.0107574462890625, 0.007785797119140625, 0.0090484619140625, 0.00482177734375, 0.00795745849609375, 0.01265716552734375, 0.01409912109375, 0.00478363037109375, 0.0014066696166992188, 0.0222625732421875, 0.06011962890625, 0.01422119140625, 0.05072021484375, 0.0201873779296875, 0.0124969482421875, 0.10302734375, 0.07672119140625, 0.0078887939453125]]","[1.0, 0.0, 1.0, 0.0, 0.0, 0.0, 0.0, 0.0, 0.0, 0.0, 0.0, 0.0, 0.0, 0.0, 0.0, 0.0, 0.0, 0.0, 0.0, 0.0, 0.0, 0.0, 0.0, 0.0, 0.0, 0.0, 0.0, 0.0]"
74,/home/minasian/input/train/033f4c8a-bb9b-11e8-b2b9-ac1f6b6435d0,"[[0.11212158203125, 0.0163726806640625, 0.07733154296875, 0.0036602020263671875, 0.020843505859375, 0.01318359375, 0.00408172607421875, 0.091796875, 0.01264190673828125, 0.0058441162109375, 0.0037174224853515625, 0.9033203125, 0.0046234130859375, 0.0083160400390625, 0.0022983551025390625, 0.016632080078125, 0.0016775131225585938, 0.0037021636962890625, 0.01346588134765625, 0.00928497314453125, 0.0024929046630859375, 0.062469482421875, 0.06622314453125, 0.03887939453125, 0.01010894775390625, 0.08978271484375, 0.006381988525390625, 0.021453857421875]]","[0.0, 0.0, 0.0, 0.0, 0.0, 0.0, 0.0, 0.0, 0.0, 0.0, 0.0, 1.0, 0.0, 0.0, 0.0, 0.0, 0.0, 0.0, 0.0, 0.0, 0.0, 0.0, 0.0, 0.0, 1.0, 0.0, 0.0, 0.0]"
75,/home/minasian/input/train/0340decc-bbb1-11e8-b2ba-ac1f6b6435d0,"[[0.278564453125, 0.0033206939697265625, 0.11883544921875, 0.040985107421875, 0.09832763671875, 0.037841796875, 0.076416015625, 0.044952392578125, 0.00638580322265625, 0.007236480712890625, 0.00824737548828125, 0.0020046234130859375, 0.0222320556640625, 0.0006542205810546875, 0.0019931793212890625, 0.007724761962890625, 0.0107574462890625, 0.0299224853515625, 0.04644775390625, 0.0340576171875, 0.004680633544921875, 0.050018310546875, 0.0020999908447265625, 0.481201171875, 0.0077972412109375, 0.1422119140625, 0.0135498046875, 0.0057830810546875]]","[0.0, 0.0, 0.0, 0.0, 0.0, 0.0, 0.0, 0.0, 0.0, 0.0, 0.0, 0.0, 0.0, 0.0, 0.0, 0.0, 0.0, 0.0, 1.0, 0.0, 0.0, 0.0, 0.0, 0.0, 0.0, 0.0, 0.0, 0.0]"
76,/home/minasian/input/train/034a41d2-bba3-11e8-b2b9-ac1f6b6435d0,"[[0.0977783203125, 0.00061798095703125, 0.022857666015625, 0.0160369873046875, 0.04803466796875, 0.035186767578125, 0.009979248046875, 0.0219268798828125, 0.004459381103515625, 0.005275726318359375, 0.001743316650390625, 0.004894256591796875, 0.00339508056640625, 0.004779815673828125, 0.99072265625, 0.0026988983154296875, 0.1298828125, 0.0240936279296875, 0.728515625, 0.02294921875, 0.005802154541015625, 0.0965576171875, 0.00026679039001464844, 0.01047515869140625, 0.0032329559326171875, 0.0457763671875, 0.000946044921875, 0.005157470703125]]","[0.0, 0.0, 0.0, 0.0, 0.0, 0.0, 0.0, 0.0, 0.0, 0.0, 0.0, 0.0, 0.0, 0.0, 1.0, 0.0, 0.0, 0.0, 1.0, 0.0, 0.0, 0.0, 0.0, 0.0, 0.0, 0.0, 0.0, 0.0]"
77,/home/minasian/input/train/0359527c-bbbb-11e8-b2ba-ac1f6b6435d0,"[[0.059326171875, 0.00992584228515625, 0.010528564453125, 0.986328125, 0.0246429443359375, 0.00963592529296875, 0.0070037841796875, 0.004619598388671875, 0.0151214599609375, 0.025665283203125, 0.0226593017578125, 0.00843048095703125, 0.0021038055419921875, 0.0089263916015625, 0.007137298583984375, 0.0046234130859375, 0.0027866363525390625, 0.0142364501953125, 0.0032939910888671875, 0.00799560546875, 0.007328033447265625, 0.0066070556640625, 0.01378631591796875, 0.0157623291015625, 0.033966064453125, 0.00444793701171875, 0.00726318359375, 0.01171112060546875]]","[0.0, 0.0, 0.0, 1.0, 0.0, 0.0, 0.0, 0.0, 0.0, 0.0, 0.0, 0.0, 0.0, 0.0, 0.0, 0.0, 0.0, 0.0, 0.0, 0.0, 0.0, 0.0, 0.0, 0.0, 0.0, 0.0, 0.0, 0.0]"
78,/home/minasian/input/train/03834516-bbc8-11e8-b2bc-ac1f6b6435d0,"[[0.134765625, 0.022705078125, 0.84619140625, 0.1923828125, 0.0172576904296875, 0.0494384765625, 0.0135650634765625, 0.004413604736328125, 0.006500244140625, 0.005832672119140625, 0.0058441162109375, 0.1407470703125, 0.01142120361328125, 0.0033855438232421875, 0.02008056640625, 0.01050567626953125, 0.0029582977294921875, 0.0038776397705078125, 0.00640106201171875, 0.017974853515625, 0.0017232894897460938, 0.0165863037109375, 0.0078277587890625, 0.049896240234375, 0.037078857421875, 0.0171661376953125, 0.010528564453125, 0.00803375244140625]]","[0.0, 0.0, 1.0, 0.0, 0.0, 0.0, 0.0, 0.0, 0.0, 0.0, 0.0, 0.0, 0.0, 0.0, 0.0, 0.0, 0.0, 0.0, 0.0, 0.0, 0.0, 0.0, 0.0, 0.0, 0.0, 0.0, 0.0, 0.0]"
79,/home/minasian/input/train/0386c70e-bbc3-11e8-b2bc-ac1f6b6435d0,"[[0.9765625, 0.02581787109375, 0.0095367431640625, 0.0232696533203125, 0.029510498046875, 0.0182647705078125, 0.0017251968383789062, 0.03741455078125, 0.0068817138671875, 0.00592041015625, 0.0032024383544921875, 0.002277374267578125, 0.01224517822265625, 0.0054779052734375, 0.019134521484375, 0.007411956787109375, 0.05609130859375, 0.01068878173828125, 0.005947113037109375, 0.01099395751953125, 0.01155853271484375, 0.315185546875, 0.006038665771484375, 0.46923828125, 0.004852294921875, 0.2103271484375, 0.0036792755126953125, 0.00811004638671875]]","[1.0, 0.0, 0.0, 0.0, 0.0, 0.0, 0.0, 0.0, 0.0, 0.0, 0.0, 0.0, 0.0, 0.0, 0.0, 0.0, 0.0, 0.0, 0.0, 0.0, 0.0, 0.0, 0.0, 0.0, 0.0, 0.0, 0.0, 0.0]"
80,/home/minasian/input/train/03871a6a-bbc8-11e8-b2bc-ac1f6b6435d0,"[[0.0159759521484375, 0.0040283203125, 0.00353240966796875, 0.0029430389404296875, 0.002307891845703125, 0.611328125, 0.01361083984375, 0.01953125, 0.0237274169921875, 0.0008258819580078125, 0.0007314682006835938, 0.022979736328125, 0.0004630088806152344, 0.0006532669067382812, 0.002750396728515625, 0.005588531494140625, 0.00478363037109375, 0.023773193359375, 0.0201416015625, 0.056427001953125, 0.00830078125, 0.02032470703125, 0.005680084228515625, 0.82666015625, 0.005580902099609375, 0.09600830078125, 0.004817962646484375, 0.0118255615234375]]","[0.0, 0.0, 0.0, 0.0, 0.0, 1.0, 0.0, 0.0, 0.0, 0.0, 0.0, 0.0, 0.0, 0.0, 0.0, 0.0, 0.0, 0.0, 0.0, 0.0, 0.0, 0.0, 0.0, 1.0, 0.0, 0.0, 0.0, 0.0]"
81,/home/minasian/input/train/03886f76-bbb6-11e8-b2ba-ac1f6b6435d0,"[[0.251220703125, 0.210693359375, 0.54833984375, 0.1654052734375, 0.0185089111328125, 0.06085205078125, 0.0181427001953125, 0.034423828125, 0.01214599609375, 0.01383209228515625, 0.0085906982421875, 0.10076904296875, 0.01219940185546875, 0.021240234375, 0.343017578125, 0.01117706298828125, 0.0072021484375, 0.0134124755859375, 0.220947265625, 0.102783203125, 0.0022640228271484375, 0.197265625, 0.0248565673828125, 0.0295257568359375, 0.00774383544921875, 0.94482421875, 0.01016998291015625, 0.01177215576171875]]","[0.0, 0.0, 0.0, 0.0, 0.0, 0.0, 0.0, 0.0, 0.0, 0.0, 0.0, 0.0, 0.0, 0.0, 0.0, 0.0, 0.0, 0.0, 0.0, 1.0, 0.0, 0.0, 0.0, 0.0, 0.0, 1.0, 0.0, 0.0]"
82,/home/minasian/input/train/03b4ea6e-bba3-11e8-b2b9-ac1f6b6435d0,"[[0.048583984375, 0.08856201171875, 0.0031147003173828125, 0.01153564453125, 0.00917816162109375, 0.00238800048828125, 0.237548828125, 0.030303955078125, 0.0057525634765625, 0.005222320556640625, 0.00506591796875, 0.01084136962890625, 0.0268707275390625, 0.01467132568359375, 0.01450347900390625, 0.006275177001953125, 0.00838470458984375, 0.0221710205078125, 0.1287841796875, 0.01397705078125, 0.003749847412109375, 0.0159454345703125, 0.0185546875, 0.276611328125, 0.009185791015625, 0.07965087890625, 0.006900787353515625, 0.01202392578125]]","[0.0, 0.0, 0.0, 0.0, 0.0, 0.0, 0.0, 0.0, 0.0, 0.0, 0.0, 0.0, 0.0, 0.0, 0.0, 0.0, 0.0, 0.0, 0.0, 0.0, 0.0, 0.0, 0.0, 1.0, 0.0, 0.0, 0.0, 0.0]"
83,/home/minasian/input/train/03e3827a-bba8-11e8-b2ba-ac1f6b6435d0,"[[0.26953125, 0.004009246826171875, 0.01190185546875, 0.00786590576171875, 0.0025005340576171875, 0.0159912109375, 0.0032825469970703125, 0.030975341796875, 0.00377655029296875, 0.0011987686157226562, 0.002399444580078125, 0.040283203125, 0.02069091796875, 0.004589080810546875, 0.006427764892578125, 0.0018157958984375, 0.0012035369873046875, 0.0177001953125, 0.00847625732421875, 0.0070343017578125, 0.0037059783935546875, 0.112060546875, 0.912109375, 0.04815673828125, 0.0036945343017578125, 0.1300048828125, 0.005764007568359375, 0.0017070770263671875]]","[0.0, 0.0, 0.0, 0.0, 0.0, 0.0, 0.0, 0.0, 0.0, 0.0, 0.0, 0.0, 0.0, 0.0, 0.0, 0.0, 0.0, 0.0, 0.0, 0.0, 0.0, 0.0, 1.0, 0.0, 0.0, 0.0, 0.0, 0.0]"
84,/home/minasian/input/train/03f12378-bba1-11e8-b2b9-ac1f6b6435d0,"[[0.0005369186401367188, 0.0002505779266357422, 0.002231597900390625, 0.0010042190551757812, 0.00196075439453125, 0.01824951171875, 0.0022068023681640625, 0.0032367706298828125, 0.0238189697265625, 0.0186920166015625, 0.0185089111328125, 0.0204010009765625, 0.0399169921875, 0.0014705657958984375, 0.98828125, 0.003265380859375, 0.0079193115234375, 0.0005850791931152344, 0.0026454925537109375, 0.006435394287109375, 0.0004906654357910156, 0.0016937255859375, 0.01561737060546875, 0.00299072265625, 0.00466156005859375, 0.0251922607421875, 0.003978729248046875, 0.0110015869140625]]","[0.0, 0.0, 0.0, 0.0, 0.0, 0.0, 0.0, 0.0, 0.0, 0.0, 0.0, 0.0, 0.0, 0.0, 1.0, 0.0, 0.0, 0.0, 0.0, 0.0, 0.0, 0.0, 0.0, 0.0, 0.0, 0.0, 0.0, 0.0]"
85,/home/minasian/input/train/03f6a278-bbc7-11e8-b2bc-ac1f6b6435d0,"[[0.39208984375, 0.0035991668701171875, 0.9736328125, 0.016510009765625, 0.0292205810546875, 0.2261962890625, 0.017822265625, 0.02728271484375, 0.00882720947265625, 0.004268646240234375, 0.0038738250732421875, 0.047454833984375, 0.09375, 0.00409698486328125, 0.1068115234375, 0.0199432373046875, 0.027679443359375, 0.00501251220703125, 0.01776123046875, 0.0158538818359375, 0.0016450881958007812, 0.07733154296875, 0.03375244140625, 0.11285400390625, 0.014251708984375, 0.07421875, 0.0089263916015625, 0.00759124755859375]]","[0.0, 0.0, 1.0, 0.0, 0.0, 0.0, 0.0, 0.0, 0.0, 0.0, 0.0, 0.0, 0.0, 0.0, 0.0, 0.0, 0.0, 0.0, 0.0, 0.0, 0.0, 0.0, 0.0, 0.0, 0.0, 0.0, 0.0, 0.0]"
86,/home/minasian/input/train/03fcc436-bbc8-11e8-b2bc-ac1f6b6435d0,"[[0.0043792724609375, 0.0009374618530273438, 0.00551605224609375, 0.0008845329284667969, 0.004215240478515625, 0.030120849609375, 0.0102996826171875, 0.0147247314453125, 0.014739990234375, 0.004825592041015625, 0.00263214111328125, 0.01296234130859375, 0.016082763671875, 0.0016889572143554688, 0.87744140625, 0.01058197021484375, 0.05023193359375, 0.007106781005859375, 0.005374908447265625, 0.004520416259765625, 0.005161285400390625, 0.004161834716796875, 0.004589080810546875, 0.734375, 0.002040863037109375, 0.10137939453125, 0.0021800994873046875, 0.00659942626953125]]","[0.0, 0.0, 0.0, 0.0, 0.0, 0.0, 0.0, 0.0, 0.0, 0.0, 0.0, 0.0, 0.0, 0.0, 1.0, 0.0, 0.0, 0.0, 0.0, 0.0, 0.0, 0.0, 0.0, 0.0, 0.0, 1.0, 0.0, 0.0]"
87,/home/minasian/input/train/041fa5c4-bba9-11e8-b2ba-ac1f6b6435d0,"[[0.141845703125, 0.00891876220703125, 0.0202178955078125, 0.03131103515625, 0.01947021484375, 0.1533203125, 0.01502227783203125, 0.740234375, 0.00916290283203125, 0.00661468505859375, 0.007610321044921875, 0.025299072265625, 0.00421905517578125, 0.017974853515625, 0.016998291015625, 0.019500732421875, 0.07098388671875, 0.0169830322265625, 0.0247955322265625, 0.09613037109375, 0.00710296630859375, 0.07415771484375, 0.09027099609375, 0.17822265625, 0.33154296875, 0.11279296875, 0.0146331787109375, 0.0206756591796875]]","[0.0, 0.0, 0.0, 0.0, 0.0, 0.0, 0.0, 1.0, 0.0, 0.0, 0.0, 0.0, 0.0, 0.0, 0.0, 0.0, 0.0, 0.0, 0.0, 0.0, 0.0, 0.0, 0.0, 0.0, 0.0, 0.0, 0.0, 0.0]"
88,/home/minasian/input/train/0427e718-bbb1-11e8-b2ba-ac1f6b6435d0,"[[0.02783203125, 0.002017974853515625, 0.0104217529296875, 0.0017490386962890625, 0.0029850006103515625, 0.00536346435546875, 0.0016679763793945312, 0.365478515625, 0.002838134765625, 0.0103607177734375, 0.00896453857421875, 0.00653076171875, 0.0014333724975585938, 0.00295257568359375, 0.00440216064453125, 0.00695037841796875, 0.01038360595703125, 0.009552001953125, 0.072998046875, 0.00925445556640625, 0.00662994384765625, 0.02386474609375, 0.004547119140625, 0.59912109375, 0.98291015625, 0.01861572265625, 0.0016374588012695312, 0.004608154296875]]","[0.0, 0.0, 0.0, 0.0, 0.0, 0.0, 0.0, 0.0, 0.0, 0.0, 0.0, 0.0, 0.0, 0.0, 0.0, 0.0, 0.0, 0.0, 0.0, 0.0, 0.0, 0.0, 0.0, 1.0, 1.0, 0.0, 0.0, 0.0]"
89,/home/minasian/input/train/042a6b74-bba6-11e8-b2ba-ac1f6b6435d0,"[[0.0019054412841796875, 0.0006990432739257812, 9.560585021972656e-05, 0.0002765655517578125, 0.0017557144165039062, 0.0003719329833984375, 0.005008697509765625, 0.0018787384033203125, 0.0014925003051757812, 0.0018062591552734375, 0.0006341934204101562, 0.99755859375, 0.0019989013671875, 0.002452850341796875, 0.0007262229919433594, 0.0007176399230957031, 0.0008707046508789062, 0.00011968612670898438, 0.00034046173095703125, 0.0001499652862548828, 6.181001663208008e-05, 0.0008258819580078125, 0.00189971923828125, 0.00031948089599609375, 0.0024623870849609375, 0.0008378028869628906, 0.00019288063049316406, 0.00031065940856933594]]","[0.0, 0.0, 0.0, 0.0, 0.0, 0.0, 0.0, 0.0, 0.0, 0.0, 0.0, 1.0, 0.0, 0.0, 0.0, 0.0, 0.0, 0.0, 0.0, 0.0, 0.0, 0.0, 0.0, 0.0, 0.0, 0.0, 0.0, 0.0]"
90,/home/minasian/input/train/042a9f8e-bbc6-11e8-b2bc-ac1f6b6435d0,"[[0.68212890625, 0.01103973388671875, 0.2156982421875, 0.049957275390625, 0.0472412109375, 0.60986328125, 0.01258087158203125, 0.25439453125, 0.006591796875, 0.0022983551025390625, 0.004756927490234375, 0.06640625, 0.001873016357421875, 0.01325225830078125, 0.0164031982421875, 0.005596160888671875, 0.031280517578125, 0.0080718994140625, 0.0180511474609375, 0.0938720703125, 0.003326416015625, 0.1710205078125, 0.023681640625, 0.0299530029296875, 0.0009212493896484375, 0.56298828125, 0.015289306640625, 0.004878997802734375]]","[1.0, 0.0, 0.0, 0.0, 0.0, 0.0, 0.0, 0.0, 0.0, 0.0, 0.0, 0.0, 0.0, 0.0, 0.0, 0.0, 0.0, 0.0, 0.0, 0.0, 0.0, 0.0, 0.0, 0.0, 0.0, 1.0, 0.0, 0.0]"
91,/home/minasian/input/train/043ff8ba-bbc2-11e8-b2bb-ac1f6b6435d0,"[[0.026397705078125, 0.002864837646484375, 0.006977081298828125, 0.009185791015625, 0.003780364990234375, 0.050018310546875, 0.0002765655517578125, 0.0013418197631835938, 0.00499725341796875, 0.0025577545166015625, 0.0016107559204101562, 0.0030975341796875, 0.0024261474609375, 0.001373291015625, 0.0022182464599609375, 0.007053375244140625, 0.001964569091796875, 0.0006651878356933594, 0.2122802734375, 0.8076171875, 0.00579071044921875, 0.0008549690246582031, 0.0016641616821289062, 0.0071868896484375, 0.057586669921875, 0.0009431838989257812, 0.002902984619140625, 0.0108795166015625]]","[0.0, 0.0, 0.0, 0.0, 0.0, 0.0, 0.0, 0.0, 0.0, 0.0, 0.0, 0.0, 0.0, 0.0, 0.0, 0.0, 0.0, 0.0, 0.0, 1.0, 0.0, 0.0, 0.0, 0.0, 0.0, 0.0, 0.0, 0.0]"
92,/home/minasian/input/train/0468fef4-bbc7-11e8-b2bc-ac1f6b6435d0,"[[0.0191802978515625, 0.0909423828125, 0.0616455078125, 0.1448974609375, 0.0030612945556640625, 0.036834716796875, 0.58447265625, 0.004344940185546875, 0.012786865234375, 0.0013914108276367188, 0.0015354156494140625, 0.0121917724609375, 0.023773193359375, 0.01233673095703125, 0.006317138671875, 0.00632476806640625, 0.01515960693359375, 0.0008282661437988281, 0.0136871337890625, 0.00618743896484375, 0.0008254051208496094, 0.017547607421875, 0.00771331787109375, 0.007114410400390625, 0.011871337890625, 0.252197265625, 0.004093170166015625, 0.00284576416015625]]","[0.0, 0.0, 0.0, 0.0, 0.0, 0.0, 1.0, 0.0, 0.0, 0.0, 0.0, 0.0, 0.0, 0.0, 0.0, 0.0, 0.0, 0.0, 0.0, 0.0, 0.0, 0.0, 0.0, 0.0, 0.0, 0.0, 0.0, 0.0]"
93,/home/minasian/input/train/047f516e-bba8-11e8-b2ba-ac1f6b6435d0,"[[0.002086639404296875, 0.065185546875, 0.0021648406982421875, 0.0015583038330078125, 0.0005125999450683594, 0.0006794929504394531, 0.0210723876953125, 0.03912353515625, 0.00061798095703125, 0.005672454833984375, 0.0024166107177734375, 0.0254669189453125, 0.28515625, 0.07110595703125, 0.007587432861328125, 0.00258636474609375, 0.00015485286712646484, 0.0006175041198730469, 0.0225982666015625, 0.0008006095886230469, 0.030670166015625, 0.1416015625, 0.222412109375, 0.0211181640625, 0.00850677490234375, 0.0123138427734375, 0.0034465789794921875, 0.0005521774291992188]]","[0.0, 0.0, 0.0, 0.0, 0.0, 0.0, 0.0, 0.0, 0.0, 0.0, 0.0, 0.0, 1.0, 0.0, 0.0, 0.0, 0.0, 0.0, 0.0, 0.0, 0.0, 0.0, 0.0, 0.0, 0.0, 0.0, 0.0, 0.0]"
94,/home/minasian/input/train/04b25a3a-bbc3-11e8-b2bc-ac1f6b6435d0,"[[0.03399658203125, 0.006763458251953125, 0.003391265869140625, 0.00738525390625, 0.025543212890625, 0.034027099609375, 0.007080078125, 0.058135986328125, 0.0012874603271484375, 0.01027679443359375, 0.01021575927734375, 0.0029735565185546875, 0.0009722709655761719, 0.00206756591796875, 0.0014600753784179688, 0.010284423828125, 0.001956939697265625, 0.935546875, 0.006305694580078125, 0.020294189453125, 0.0143585205078125, 0.00786590576171875, 0.005580902099609375, 0.01003265380859375, 0.004093170166015625, 0.97265625, 0.0021686553955078125, 0.05108642578125]]","[0.0, 0.0, 0.0, 0.0, 0.0, 0.0, 0.0, 0.0, 0.0, 0.0, 0.0, 0.0, 0.0, 0.0, 0.0, 0.0, 0.0, 1.0, 0.0, 0.0, 0.0, 0.0, 0.0, 0.0, 0.0, 1.0, 0.0, 0.0]"
95,/home/minasian/input/train/04bbd5da-bbad-11e8-b2ba-ac1f6b6435d0,"[[0.440185546875, 0.053314208984375, 0.150390625, 0.01499176025390625, 0.1517333984375, 0.493896484375, 0.036773681640625, 0.07635498046875, 0.0287322998046875, 0.00736236572265625, 0.0111083984375, 0.0653076171875, 0.01009368896484375, 0.021636962890625, 0.0169219970703125, 0.0115203857421875, 0.00127410888671875, 0.016510009765625, 0.01023101806640625, 0.05133056640625, 0.013458251953125, 0.012847900390625, 0.0018415451049804688, 0.23876953125, 0.0091552734375, 0.091064453125, 0.07635498046875, 0.0031375885009765625]]","[1.0, 0.0, 1.0, 0.0, 0.0, 0.0, 0.0, 0.0, 0.0, 0.0, 0.0, 0.0, 0.0, 0.0, 0.0, 0.0, 0.0, 0.0, 0.0, 0.0, 0.0, 0.0, 0.0, 0.0, 0.0, 0.0, 0.0, 0.0]"
96,/home/minasian/input/train/04c368c4-bba6-11e8-b2ba-ac1f6b6435d0,"[[0.2210693359375, 0.1905517578125, 0.0013751983642578125, 0.0006875991821289062, 0.0026607513427734375, 0.005176544189453125, 0.0031108856201171875, 0.99365234375, 0.001110076904296875, 0.0015773773193359375, 0.002292633056640625, 0.003070831298828125, 0.0142669677734375, 0.0008845329284667969, 0.0732421875, 0.0051116943359375, 0.0633544921875, 0.0023746490478515625, 0.00821685791015625, 0.0022983551025390625, 0.00020647048950195312, 0.0469970703125, 0.002620697021484375, 0.0026264190673828125, 0.00508880615234375, 0.01788330078125, 0.00038123130798339844, 0.0007734298706054688]]","[0.0, 0.0, 0.0, 0.0, 0.0, 0.0, 0.0, 1.0, 0.0, 0.0, 0.0, 0.0, 0.0, 0.0, 0.0, 0.0, 0.0, 0.0, 0.0, 0.0, 0.0, 0.0, 0.0, 0.0, 0.0, 0.0, 0.0, 0.0]"
97,/home/minasian/input/train/04d1c1b8-bba0-11e8-b2b9-ac1f6b6435d0,"[[0.308349609375, 0.0019664764404296875, 0.07464599609375, 0.003818511962890625, 0.061126708984375, 0.9560546875, 0.004638671875, 0.01099395751953125, 0.0010957717895507812, 0.0009813308715820312, 0.0011186599731445312, 0.0014276504516601562, 0.0311126708984375, 0.00308990478515625, 0.016204833984375, 0.06488037109375, 0.01495361328125, 0.0016326904296875, 0.0019292831420898438, 0.03509521484375, 0.0007123947143554688, 0.662109375, 0.00586700439453125, 0.0033359527587890625, 0.0022029876708984375, 0.045379638671875, 0.0037994384765625, 0.01102447509765625]]","[0.0, 0.0, 0.0, 0.0, 0.0, 1.0, 0.0, 0.0, 0.0, 0.0, 0.0, 0.0, 0.0, 0.0, 0.0, 0.0, 0.0, 0.0, 0.0, 0.0, 0.0, 1.0, 0.0, 0.0, 0.0, 0.0, 0.0, 0.0]"
98,/home/minasian/input/train/04da01a0-bbbb-11e8-b2ba-ac1f6b6435d0,"[[0.55517578125, 0.0751953125, 0.01971435546875, 0.0229644775390625, 0.1268310546875, 0.0380859375, 0.044342041015625, 0.059356689453125, 0.00453948974609375, 0.010223388671875, 0.00423431396484375, 0.0121917724609375, 0.1209716796875, 0.0129547119140625, 0.0025634765625, 0.00518798828125, 0.054962158203125, 0.01311492919921875, 0.03973388671875, 0.09063720703125, 0.007144927978515625, 0.210693359375, 0.002040863037109375, 0.87255859375, 0.02288818359375, 0.80810546875, 0.0050201416015625, 0.024566650390625]]","[1.0, 0.0, 0.0, 0.0, 0.0, 0.0, 0.0, 0.0, 0.0, 0.0, 0.0, 0.0, 0.0, 0.0, 0.0, 0.0, 0.0, 0.0, 0.0, 0.0, 0.0, 0.0, 0.0, 1.0, 0.0, 1.0, 0.0, 0.0]"
99,/home/minasian/input/train/04e1059a-bbc5-11e8-b2bc-ac1f6b6435d0,"[[0.0198822021484375, 0.0017480850219726562, 0.003269195556640625, 0.01122283935546875, 0.0135498046875, 0.56982421875, 0.0022983551025390625, 0.01500701904296875, 0.010284423828125, 0.002826690673828125, 0.001590728759765625, 0.08404541015625, 0.003299713134765625, 0.0013713836669921875, 0.9716796875, 0.006435394287109375, 0.12493896484375, 0.0154876708984375, 0.011077880859375, 0.0017290115356445312, 0.0022029876708984375, 0.0015354156494140625, 0.0004048347473144531, 0.037750244140625, 0.01259613037109375, 0.01401519775390625, 0.0027923583984375, 0.0170135498046875]]","[0.0, 0.0, 0.0, 0.0, 0.0, 0.0, 0.0, 0.0, 0.0, 0.0, 0.0, 0.0, 0.0, 0.0, 1.0, 0.0, 0.0, 0.0, 0.0, 0.0, 0.0, 0.0, 0.0, 0.0, 0.0, 0.0, 0.0, 0.0]"
